{id:"0", semesters_attended: 7,courses_taken: [{name:"CE 473", grade:"A"},{name:"CE 308", grade:"B-"},{name:"Humanities Core ", grade:"C-"},{name:"PHYC 161", grade:"CR"},{name:"CE 283", grade:"A-"},{name:"SB S C ", grade:"B-"},{name:"Humanities Core ", grade:"B+"},{name:"ENGL 110", grade:"C-"},{name:"Science Elective ", grade:"C+"},{name:"CE 305", grade:"C-"},{name:"CE 160L", grade:"D-"},{name:"ENGL 219", grade:"C"},{name:"ES E ", grade:"A-"},{name:"MGMT 202", grade:"B-"},{name:"Second Language Core ", grade:"C"},{name:"ECON 105", grade:"D-"},{name:"ES E ", grade:"C"},{name:"CE 310", grade:"CR"},{name:"SB S C ", grade:"D-"},{name:"Science Elective ", grade:"B"},{name:"ES E ", grade:"D-"},{name:"CE 370", grade:"B"},{name:"CE 302", grade:"D-"}],track:"False",ptrack:0.00151513696641}
{id:"1", semesters_attended: 4,courses_taken: [{name:"CHEM 123L", grade:"D-"},{name:"MATH 163", grade:"D-"},{name:"NE 213", grade:"C"},{name:"NE 313L", grade:"A"},{name:"Nuclear Engineering Technical Elective ", grade:"A"},{name:"CHEM 121", grade:"C+"},{name:"Humanities Core ", grade:"CR"},{name:"NE 323L", grade:"CR"},{name:"ENGL 120", grade:"C-"},{name:"CHEM 121", grade:"C-"},{name:"CHEM 123L", grade:"C+"},{name:"PHYC 160", grade:"A-"},{name:"NE 452", grade:"C"},{name:"Technical Elective ", grade:"C+"},{name:"Nuclear Engineering Technical Elective ", grade:"A-"},{name:"NE 452", grade:"C"},{name:"NE 497L", grade:"D-"},{name:"NE 462", grade:"C+"},{name:"CHEM 122", grade:"C"},{name:"NE 312", grade:"C-"},{name:"PHYC 262", grade:"CR"},{name:"NE 464", grade:"C-"},{name:"NE 231", grade:"B-"},{name:"Nuclear Engineering Technical Elective ", grade:"C"},{name:"CHEM 121", grade:"B-"},{name:"SB C ", grade:"B-"},{name:"PHYC 161", grade:"B-"},{name:"PHYC 262", grade:"C-"},{name:"NE 497L", grade:"C"},{name:"Fine Arts Core ", grade:"B+"},{name:"NE 413L", grade:"B-"},{name:"CS 151L", grade:"A"},{name:"NE 497L", grade:"C-"},{name:"NE 452", grade:"B"},{name:"Technical Elective ", grade:"D-"},{name:"Humanities Core ", grade:"CR"},{name:"NE 497L", grade:"B-"},{name:"CHEM 121", grade:"B"}],track:"True",ptrack:0.901658779542}
{id:"2", semesters_attended: 1,courses_taken: [{name:"ME 306", grade:"D-"},{name:"MATH 264", grade:"B+"},{name:"CE 473", grade:"D-"},{name:"CE 305", grade:"B"},{name:"CE 302", grade:"A-"},{name:"Science Elective ", grade:"B+"},{name:"CE 160L", grade:"C-"},{name:"Humanities Core ", grade:"D-"},{name:"CE 495", grade:"B+"},{name:"Humanities Core ", grade:"B+"},{name:"MGMT 202", grade:"B-"},{name:"Science Elective ", grade:"D-"},{name:"CE 370", grade:"B-"},{name:"MATH 163", grade:"D-"},{name:"MATH 316", grade:"A"},{name:"STAT 345", grade:"A-"},{name:"CE 370", grade:"A-"},{name:"MATH 316", grade:"B-"},{name:"CE 495", grade:"A-"},{name:"CHEM 121", grade:"C-"},{name:"CE 409", grade:"C-"},{name:"CHEM 123L", grade:"D-"},{name:"CE 202", grade:"A"},{name:"CE 283", grade:"B+"},{name:"Humanities ", grade:"A-"},{name:"CE 495", grade:"C"},{name:"CHEM 123L", grade:"C-"},{name:"CE 495", grade:"A"},{name:"CHEM 123L", grade:"A"},{name:"STAT 345", grade:"C-"},{name:"Second Language Core ", grade:"A"},{name:"Science Elective ", grade:"D-"},{name:"ENGL 120", grade:"C"},{name:"CS 151L", grade:"A-"},{name:"ES E ", grade:"CR"},{name:"MATH 316", grade:"B-"}],track:"False",ptrack:0.133084953422}
{id:"3", semesters_attended: 4,courses_taken: [{name:"MATH 264", grade:"B"},{name:"NE 462", grade:"C+"},{name:"Nuclear Engineering Technical Elective ", grade:"A"},{name:"Nuclear Engineering Technical Elective ", grade:"A-"},{name:"PHYC 262", grade:"C+"},{name:"Second Language Core ", grade:"C"},{name:"Humanities Core ", grade:"CR"},{name:"NE 372", grade:"D-"},{name:"NE 230", grade:"A-"},{name:"CHEM 123L", grade:"C"},{name:"SB C ", grade:"C"},{name:"CHEM 123L", grade:"CR"},{name:"NE 213", grade:"A-"},{name:"Technical Elective ", grade:"D-"},{name:"PHYC 161", grade:"C+"},{name:"NE 498L", grade:"CR"},{name:"Nuclear Engineering Technical Elective ", grade:"C+"},{name:"NE 314", grade:"C"},{name:"CHEM 123L", grade:"CR"},{name:"MATH 264", grade:"D-"},{name:"SB C ", grade:"D-"},{name:"SB C ", grade:"C+"},{name:"ENGL 110", grade:"D-"},{name:"CHEM 121", grade:"B+"},{name:"CHEM 121", grade:"C-"},{name:"Fine Arts Core ", grade:"C-"}],track:"True",ptrack:0.601761275771}
{id:"4", semesters_attended: 6,courses_taken: [{name:"Humanities Core ", grade:"C-"},{name:"NE 230", grade:"C+"},{name:"NE 452", grade:"B+"},{name:"NE 464", grade:"A-"},{name:"NE 470", grade:"C"},{name:"Nuclear Engineering Technical Elective ", grade:"CR"},{name:"NE 310", grade:"C+"},{name:"NE 497L", grade:"C-"},{name:"NE 330", grade:"C-"},{name:"NE 410", grade:"D-"},{name:"NE 213", grade:"C+"},{name:"NE 230", grade:"A-"},{name:"CHEM 123L", grade:"C"},{name:"NE 313L", grade:"B+"},{name:"Nuclear Engineering Technical Elective ", grade:"D-"},{name:"NE 464", grade:"C+"},{name:"PHYC 161", grade:"C-"},{name:"MATH 163", grade:"C-"},{name:"Humanities Core ", grade:"B-"},{name:"NE 213", grade:"D-"},{name:"NE 498L", grade:"C+"},{name:"NE 312", grade:"A-"},{name:"NE 311", grade:"B"}],track:"False",ptrack:0.155011352764}
{id:"5", semesters_attended: 1,courses_taken: [{name:"STAT 145  STAT 245  STAT 345 ", grade:"B-"},{name:"PSY 105", grade:"B+"},{name:"MGMT 202", grade:"B"},{name:"MGMT 340", grade:"D-"},{name:"Upper Division Humanities ", grade:"A"},{name:"MGMT 398", grade:"A"},{name:"MGMT 306", grade:"C"},{name:"MGMT 300", grade:"A-"},{name:"MGMT 306", grade:"B+"},{name:"Free Elective ", grade:"B-"}],track:"False",ptrack:0.0807420520781}
{id:"6", semesters_attended: 5,courses_taken: [{name:"CE 409", grade:"D-"},{name:"Humanities Core ", grade:"C+"},{name:"CE 455", grade:"B+"},{name:"CS 151L", grade:"C"},{name:"ENGL 110", grade:"C+"},{name:"PHYC 161", grade:"A-"},{name:"CE 202", grade:"C"},{name:"CS 151L", grade:"B"},{name:"MATH 316", grade:"C-"},{name:"ENGL 110", grade:"D-"},{name:"CE 377", grade:"B"},{name:"CE 376", grade:"C+"},{name:"CE 283", grade:"C-"},{name:"CE 370", grade:"B+"},{name:"CE 310", grade:"A"},{name:"CE 202", grade:"A"},{name:"Humanities Core ", grade:"CR"},{name:"Humanities ", grade:"B-"},{name:"MATH 264", grade:"C+"},{name:"CE 455", grade:"C-"},{name:"CE 409", grade:"C-"},{name:"MATH 316", grade:"A"},{name:"CE 473", grade:"C"},{name:"ENGL 120", grade:"CR"},{name:"ENGL 110", grade:"B-"},{name:"CE 475", grade:"C"},{name:"Humanities ", grade:"C"},{name:"CE 377", grade:"A-"},{name:"Second Language Core ", grade:"B-"},{name:"CHEM 123L", grade:"CR"},{name:"ENGL 219", grade:"B+"},{name:"CE 360", grade:"A-"},{name:"CS 151L", grade:"C"},{name:"MATH 162", grade:"B"},{name:"ME 306", grade:"A"},{name:"ME 306", grade:"C+"},{name:"CE 370", grade:"C-"},{name:"CE 376", grade:"A-"},{name:"CE 499", grade:"B-"}],track:"True",ptrack:0.698057471854}
{id:"7", semesters_attended: 7,courses_taken: [{name:"Minor or General Elective ", grade:"A-"},{name:"ENGL 110", grade:"D-"},{name:"CS 361L", grade:"B-"},{name:"Minor or General Elective ", grade:"B+"},{name:"CS 251L", grade:"B+"},{name:"CS E ", grade:"A-"},{name:"MATH 163", grade:"C-"},{name:"MATH 163", grade:"B-"},{name:"Second Language ", grade:"A"},{name:"Lab Science ", grade:"A"},{name:"CS 241L", grade:"A-"},{name:"CS 293", grade:"CR"},{name:"ECE 238L", grade:"B"},{name:"CS 341L", grade:"A-"},{name:"Humanities ", grade:"B"},{name:"Lab Science ", grade:"C+"},{name:"Lab Science ", grade:"B-"},{name:"CS 460", grade:"A"},{name:"Minor or General Elective ", grade:"C-"},{name:"CS 362L", grade:"A"},{name:"Social Science ", grade:"B"},{name:"MATH 163", grade:"CR"},{name:"MATH 163", grade:"B+"},{name:"STAT 345", grade:"B-"},{name:"Minor or General Elective ", grade:"B-"},{name:"Second Language ", grade:"C+"},{name:"CS E ", grade:"B"},{name:"CS 351L", grade:"C"},{name:"CS 351L", grade:"B+"},{name:"Lab Science ", grade:"CR"},{name:"MATH 314", grade:"C-"},{name:"Fine Arts ", grade:"A"},{name:"CS 361L", grade:"B-"},{name:"CS 375", grade:"B-"},{name:"MATH 314", grade:"C+"},{name:"CS 341L", grade:"B"},{name:"CS 152L", grade:"C+"}],track:"False",ptrack:0.382382878648}
{id:"8", semesters_attended: 3,courses_taken: [{name:"CS 351L", grade:"B+"},{name:"CS E ", grade:"C-"},{name:"CS 460", grade:"B+"},{name:"CS 251L", grade:"C-"},{name:"CS 251L", grade:"CR"},{name:"Social Science ", grade:"C"},{name:"CS 460", grade:"CR"},{name:"CS 341L", grade:"B-"},{name:"Second Language ", grade:"A"},{name:"Social Science ", grade:"C"},{name:"Lab Science ", grade:"A-"},{name:"CS 261", grade:"B"},{name:"Social Science ", grade:"C-"},{name:"MATH 162", grade:"CR"},{name:"CS E ", grade:"B-"},{name:"Humanities ", grade:"A-"},{name:"MATH 162", grade:"B-"},{name:"MATH 163", grade:"C+"},{name:"ENGL 120", grade:"A-"},{name:"CS 341L", grade:"CR"},{name:"CS 261", grade:"C-"},{name:"Minor or General Elective ", grade:"CR"},{name:"CS 351L", grade:"B-"},{name:"CS 241L", grade:"C+"},{name:"Minor or General Elective ", grade:"A"},{name:"ENGL 110", grade:"CR"},{name:"CS 152L", grade:"C+"},{name:"CS 341L", grade:"D-"},{name:"ENGL 110", grade:"B-"},{name:"CS 357L", grade:"CR"},{name:"CS 261", grade:"A"}],track:"True",ptrack:0.94100251438}
{id:"9", semesters_attended: 7,courses_taken: [{name:"MGMT 340", grade:"CR"},{name:"MGMT 322", grade:"CR"},{name:"MGMT 449", grade:"A-"},{name:"MATH 180", grade:"C-"},{name:"MGMT 328", grade:"D-"},{name:"ENGL 219", grade:"C-"},{name:"PSY 105", grade:"C"},{name:"PSY 105", grade:"B+"},{name:"ENGL 219", grade:"D-"},{name:"PSY 105", grade:"B-"},{name:"MATH 180", grade:"A"},{name:"MGMT 308", grade:"C-"},{name:"ENGL 120", grade:"A"}],track:"False",ptrack:0.300325771518}
{id:"10", semesters_attended: 2,courses_taken: [{name:"MGMT 450", grade:"CR"},{name:"MGMT 202", grade:"C-"},{name:"Social & Behavioral Science Elective ", grade:"B+"},{name:"ECON 105", grade:"C"},{name:"ENGL 120", grade:"D-"},{name:"MGMT 398", grade:"C"},{name:"MGMT 398", grade:"B-"}],track:"False",ptrack:0.0298115683123}
{id:"11", semesters_attended: 3,courses_taken: [{name:"Advanced Chemistry Concentration ", grade:"B-"},{name:"Second Language Core ", grade:"CR"},{name:"MATH 163", grade:"B+"},{name:"ENGL 219", grade:"A-"},{name:"ENGL 219", grade:"B-"},{name:"Advanced Chemistry Concentration ", grade:"A-"},{name:"Humanities Core ", grade:"D-"},{name:"CHBE 318L", grade:"CR"},{name:"MATH 316", grade:"A-"},{name:"MATH 163", grade:"D-"},{name:"Basic Science Concentration ", grade:"A-"},{name:"CHEM 301", grade:"C+"},{name:"CHBE 317", grade:"C-"},{name:"MATH 316", grade:"B+"},{name:"CS 151L", grade:"D-"},{name:"CHEM 121", grade:"C"},{name:"CHEM 121", grade:"C-"},{name:"CHBE 493L", grade:"B+"},{name:"CHBE 371", grade:"B"},{name:"CHBE 494L", grade:"C-"},{name:"CHBE 253", grade:"CR"},{name:"CHEM 303L", grade:"B"},{name:"Fine Arts ", grade:"A"},{name:"CHBE 319L", grade:"C"},{name:"CHBE 251", grade:"D-"},{name:"CHBE 321", grade:"C+"},{name:"Humanities ", grade:"D-"},{name:"CHBE 319L", grade:"B-"},{name:"Technical Elective ", grade:"A"},{name:"CHBE 253", grade:"C+"},{name:"CHEM 124L", grade:"C+"},{name:"ECON 105", grade:"B"},{name:"ENGL 120", grade:"A"},{name:"CHBE 451", grade:"A"},{name:"CHBE 371", grade:"A"},{name:"Basic Science Concentration ", grade:"B"},{name:"CHBE 302", grade:"A"},{name:"CHBE 419L", grade:"C"},{name:"CHBE 418", grade:"C-"},{name:"CHBE 319L", grade:"B+"},{name:"ENGL 219", grade:"C+"},{name:"CHBE 371", grade:"C+"},{name:"CHBE 418", grade:"D-"},{name:"CHEM 124L", grade:"A-"},{name:"ECON 105", grade:"C"}],track:"True",ptrack:0.715949021168}
{id:"12", semesters_attended: 5,courses_taken: [{name:"Humanities ", grade:"C"},{name:"CS 362L", grade:"B"},{name:"Lab Science ", grade:"C-"},{name:"CS 341L", grade:"A"},{name:"MATH 314", grade:"A"},{name:"Humanities ", grade:"C-"},{name:"MATH 162", grade:"A"},{name:"Minor or General Elective ", grade:"CR"},{name:"Humanities ", grade:"A"},{name:"STAT 345", grade:"B+"},{name:"ENGL 110", grade:"D-"},{name:"Second Language ", grade:"A-"},{name:"Humanities ", grade:"CR"},{name:"CS 362L", grade:"C-"},{name:"Humanities ", grade:"CR"},{name:"Social Science ", grade:"B-"},{name:"Lab Science ", grade:"C+"},{name:"CS E ", grade:"B+"},{name:"Second Language ", grade:"B+"},{name:"Minor or General Elective ", grade:"D-"},{name:"Writing and Speaking ", grade:"C+"}],track:"False",ptrack:0.106654044633}
{id:"13", semesters_attended: 4,courses_taken: [{name:"CE 308", grade:"CR"},{name:"CE 350", grade:"D-"},{name:"CE 160L", grade:"CR"},{name:"Humanities Core ", grade:"B"},{name:"ENGL 120", grade:"C-"},{name:"CE 302", grade:"B"},{name:"CE 308", grade:"C+"},{name:"CHEM 123L", grade:"C+"},{name:"STAT 345", grade:"CR"},{name:"Science Elective ", grade:"B-"},{name:"CE 475", grade:"A"},{name:"MATH 316", grade:"A-"},{name:"CE 360", grade:"D-"},{name:"Science Elective ", grade:"A-"},{name:"CHEM 121", grade:"A"},{name:"STAT 345", grade:"B-"},{name:"CE 308", grade:"A"},{name:"ENGL 110", grade:"B"},{name:"CE 409", grade:"D-"},{name:"CS 151L", grade:"B+"}],track:"True",ptrack:0.754400216503}
{id:"14", semesters_attended: 3,courses_taken: [{name:"CS 357L", grade:"B"},{name:"CS 293", grade:"C+"},{name:"Second Language ", grade:"B-"},{name:"CS E ", grade:"A"},{name:"Lab Science ", grade:"C+"},{name:"CS 481", grade:"B+"},{name:"Minor or General Elective ", grade:"A"},{name:"CS 357L", grade:"C-"},{name:"CS 261", grade:"C"},{name:"CS 361L", grade:"D-"},{name:"CS 351L", grade:"A"},{name:"Lab Science ", grade:"A"},{name:"CS 361L", grade:"A-"},{name:"CS 361L", grade:"C-"},{name:"CS 293", grade:"C+"},{name:"CS 293", grade:"B-"},{name:"CS 481", grade:"CR"},{name:"ENGL 110", grade:"B-"},{name:"CS 375", grade:"C+"},{name:"CS 460", grade:"C"},{name:"Second Language ", grade:"B"},{name:"CS 481", grade:"A"},{name:"Minor or General Elective ", grade:"A-"},{name:"STAT 345", grade:"A"},{name:"ECE 238L", grade:"C+"},{name:"Second Language ", grade:"CR"},{name:"CS E ", grade:"A"},{name:"CS 152L", grade:"C"},{name:"CS 261", grade:"B"},{name:"CS 293", grade:"C"},{name:"Second Language ", grade:"A"},{name:"Fine Arts ", grade:"CR"},{name:"Minor or General Elective ", grade:"B"},{name:"Fine Arts ", grade:"B"}],track:"False",ptrack:0.237221469428}
{id:"15", semesters_attended: 1,courses_taken: [{name:"Social Behavioral Science ", grade:"D-"},{name:"Upper Division Area of Focus 2 ", grade:"C-"},{name:"LAIS 399", grade:"A"},{name:"LAIS 311", grade:"A"},{name:"Upper Division Area of Focus 2 ", grade:"A-"},{name:"Second Language ", grade:"A-"},{name:"Upper Division Area of Focus 2 ", grade:"B"},{name:"Lower Division Elective/Pre-requisite ", grade:"CR"},{name:"ENGL 110", grade:"B"},{name:"MATH 121 OR MATH 129 OR STAT 145 ", grade:"A"},{name:"Upper Division Area of Focus 1 ", grade:"A-"},{name:"ENGL 110", grade:"A-"},{name:"Social Behavioral Science ", grade:"D-"},{name:"Social Behavioral Science ", grade:"CR"},{name:"Lower Division Elective/Pre-requisite ", grade:"B+"},{name:"Social Behavioral Science ", grade:"CR"},{name:"Second Language ", grade:"A"},{name:"Lower Division Elective/Pre-requisite ", grade:"CR"},{name:"Physical and Natural Science ", grade:"A"},{name:"MATH 121 OR MATH 129 OR STAT 145 ", grade:"B"},{name:"LAIS 310", grade:"B"},{name:"Freshman Academic Choice ", grade:"C-"},{name:"Upper Division Area of Focus 1 ", grade:"B-"},{name:"MATH 121 OR MATH 129 OR STAT 145 ", grade:"B+"},{name:"Freshman Academic Choice ", grade:"B+"},{name:"Lower Division Elective/Pre-requisite ", grade:"B+"},{name:"Upper Division Area of Focus 1 ", grade:"B+"},{name:"Social Behavioral Science ", grade:"C-"}],track:"True",ptrack:0.691659746235}
{id:"16", semesters_attended: 7,courses_taken: [{name:"CS 460", grade:"D-"},{name:"ENGL 120", grade:"B"},{name:"CS 362L", grade:"B-"},{name:"Lab Science ", grade:"C"}],track:"False",ptrack:0.161720352783}
{id:"17", semesters_attended: 5,courses_taken: [{name:"PHYC 160", grade:"C+"},{name:"ME 160L", grade:"A"},{name:"Second Language Core Course or ME 406L: Formula SAE Racecar Design ** ", grade:"B"},{name:"ME 380", grade:"A"},{name:"ECE 203", grade:"A-"},{name:"ME 380", grade:"B-"},{name:"ECE 203", grade:"B-"},{name:"PHYC 161", grade:"B+"},{name:"CE 302", grade:"B"},{name:"ME 217", grade:"B+"},{name:"CHEM 122", grade:"B-"},{name:"ME 306", grade:"B"},{name:"ME 302", grade:"B"},{name:"ME 460", grade:"C"},{name:"MATH 162", grade:"C-"},{name:"ME 370", grade:"CR"},{name:"CE 202", grade:"B"},{name:"Math Elective ", grade:"D-"},{name:"MATH 316", grade:"C-"},{name:"ME 317L", grade:"C+"},{name:"ENGL 110", grade:"C+"},{name:"CS 151L", grade:"C+"},{name:"MATH 264", grade:"D-"},{name:"ME 301", grade:"C"},{name:"ENGL 110", grade:"C+"},{name:"ENGL 110", grade:"C+"},{name:"ME 317L", grade:"C"},{name:"ME T E ", grade:"C+"},{name:"CE 202", grade:"A-"},{name:"CE 302", grade:"B+"},{name:"ECON 105", grade:"D-"},{name:"MATH 162", grade:"B-"},{name:"ME 370", grade:"C-"},{name:"ME 460", grade:"C+"}],track:"False",ptrack:0.053208183478}
{id:"18", semesters_attended: 3,courses_taken: [{name:"CHEM 123L", grade:"A-"},{name:"Advanced Chemistry Concentration ", grade:"C"},{name:"Fine Arts ", grade:"B+"},{name:"Basic Engineering Elective ", grade:"D-"}],track:"True",ptrack:0.511075101143}
{id:"19", semesters_attended: 3,courses_taken: [{name:"Lab Science ", grade:"A-"},{name:"Minor or General Elective ", grade:"C+"},{name:"STAT 345", grade:"CR"},{name:"MATH 163", grade:"B+"},{name:"Lab Science ", grade:"CR"},{name:"Humanities ", grade:"C-"},{name:"CS 481", grade:"C-"},{name:"CS 341L", grade:"A-"},{name:"Fine Arts ", grade:"A-"},{name:"Lab Science ", grade:"A"},{name:"MATH 163", grade:"C"},{name:"CS E ", grade:"A-"},{name:"MATH 314", grade:"C+"},{name:"ENGL 110", grade:"CR"},{name:"CS 341L", grade:"C-"},{name:"CS 241L", grade:"B-"},{name:"ECE 238L", grade:"CR"},{name:"CS 361L", grade:"C-"},{name:"Second Language ", grade:"A-"},{name:"Minor or General Elective ", grade:"C+"},{name:"CS 251L", grade:"B+"},{name:"CS 481", grade:"B-"},{name:"CS E ", grade:"CR"},{name:"ECE 238L", grade:"B-"},{name:"Fine Arts ", grade:"D-"},{name:"CS 357L", grade:"D-"},{name:"CS 357L", grade:"C-"},{name:"Lab Science ", grade:"CR"},{name:"Humanities ", grade:"C+"},{name:"CS 351L", grade:"A"},{name:"STAT 345", grade:"CR"},{name:"CS 261", grade:"A-"},{name:"CS 341L", grade:"CR"},{name:"Lab Science ", grade:"CR"}],track:"False",ptrack:0.0825485066248}
{id:"20", semesters_attended: 1,courses_taken: [{name:"Humanities Requirement ", grade:"B+"},{name:"Phsyical & Natural Sciences ", grade:"C+"},{name:"Phsyical & Natural Sciences ", grade:"D-"},{name:"PSY 105 OR SOC 101 ", grade:"B-"},{name:"Humanities Requirement ", grade:"A"},{name:"Financial Management Elective ", grade:"C+"},{name:"Fine Arts Requirement ", grade:"A"},{name:"Fine Arts Requirement ", grade:"CR"},{name:"MGMT 497", grade:"D-"},{name:"MGMT 450", grade:"C+"},{name:"MGMT 322", grade:"D-"},{name:"Financial Management Elective ", grade:"A-"},{name:"Social & Behavioral Science Elective ", grade:"C+"},{name:"Upper Division Humanities ", grade:"D-"},{name:"Phsyical & Natural Sciences ", grade:"A"},{name:"Financial Management Elective ", grade:"C+"},{name:"Social & Behavioral Science Elective ", grade:"C-"},{name:"STAT 145 OR STAT 245 OR STAT 345 ", grade:"CR"},{name:"Financial Management Elective ", grade:"D-"},{name:"Financial Management Elective ", grade:"B-"},{name:"MGMT 308", grade:"C"},{name:"MGMT 326", grade:"B+"},{name:"MATH 121", grade:"C"},{name:"Physical and Natural Science with Lab ", grade:"C"},{name:"Foreign Language ", grade:"C-"},{name:"MGMT 450", grade:"C-"},{name:"Financial Management Elective ", grade:"D-"},{name:"MGMT 300", grade:"B"},{name:"MGMT 450", grade:"CR"},{name:"Financial Management Elective ", grade:"C-"},{name:"PSY 105 OR SOC 101 ", grade:"C-"},{name:"MGMT 308", grade:"C-"},{name:"MGMT 398", grade:"C+"},{name:"ECON 105", grade:"B-"},{name:"MGMT 326", grade:"B-"},{name:"MGMT 326", grade:"A"},{name:"ECON 105", grade:"C-"},{name:"MGMT 306", grade:"B+"},{name:"ENGL 219 OR ENGL 220 ", grade:"B-"},{name:"MGMT 322", grade:"B"}],track:"True",ptrack:0.747813989409}
{id:"21", semesters_attended: 6,courses_taken: [{name:"Lower Division Elective/Pre-requisite ", grade:"C-"},{name:"Lower Division Elective/Pre-requisite ", grade:"A"},{name:"Fine Arts ", grade:"CR"},{name:"Second Language ", grade:"B"},{name:"Humanities ", grade:"CR"},{name:"Social Behavioral Science ", grade:"B+"},{name:"ENGL 110", grade:"B+"},{name:"Lower Division Elective/Pre-requisite ", grade:"B+"},{name:"Second Language ", grade:"CR"},{name:"ENGL 110", grade:"C"},{name:"LAIS 499", grade:"D-"},{name:"ENGL 110", grade:"B+"},{name:"Social Behavioral Science ", grade:"C"},{name:"LAIS 310", grade:"B"},{name:"Lower Division Elective/Pre-requisite ", grade:"B+"},{name:"MATH 121 OR MATH 129 OR STAT 145 ", grade:"C"},{name:"Second Language ", grade:"C"},{name:"LAIS 399", grade:"B+"},{name:"Lower Division Elective/Pre-requisite ", grade:"D-"},{name:"Social Behavioral Science ", grade:"B-"},{name:"Lower Division Elective/Pre-requisite ", grade:"A-"},{name:"Social Behavioral Science ", grade:"D-"},{name:"Social Behavioral Science ", grade:"C"},{name:"Social Behavioral Science ", grade:"C+"},{name:"Upper Division Area of Focus 1 ", grade:"D-"},{name:"Physical and Natural Science ", grade:"A"},{name:"Freshman Academic Choice ", grade:"B-"},{name:"Second Language ", grade:"B"},{name:"LAIS 310", grade:"C"},{name:"LAIS 499", grade:"A"},{name:"LAIS 399", grade:"C"},{name:"Upper Division Area of Focus 1 ", grade:"C-"}],track:"True",ptrack:0.836510365544}
{id:"22", semesters_attended: 7,courses_taken: [{name:"Management Elective ", grade:"C+"},{name:"STAT 145", grade:"B"},{name:"MATH 123", grade:"A"},{name:"MGMT 310", grade:"C+"},{name:"CE 130", grade:"CR"},{name:"CS 150L", grade:"C"},{name:"CE 370", grade:"B+"},{name:"CE 495", grade:"D-"},{name:"SB S C ", grade:"C+"},{name:"CE 350", grade:"B"},{name:"CE 283", grade:"A"},{name:"CE 474", grade:"B+"},{name:"ENGL 219", grade:"A"},{name:"Fine Arts Core ", grade:"B-"},{name:"CE 305", grade:"C-"},{name:"MATH 123", grade:"B"},{name:"CE 376", grade:"A-"},{name:"Humanities Core ", grade:"B-"},{name:"CE 474", grade:"D-"},{name:"PHYC 151", grade:"C"},{name:"CE 376", grade:"B+"},{name:"MGMT 303", grade:"C"},{name:"MGMT 310", grade:"B"},{name:"CE 477", grade:"C+"},{name:"CS 150L", grade:"C+"},{name:"CE 473", grade:"C-"},{name:"ENGL 219", grade:"C"},{name:"ENGL 110", grade:"C"},{name:"CE 409", grade:"C"},{name:"Second Language Core ", grade:"A"},{name:"MGMT 202", grade:"B-"},{name:"ENGL 120", grade:"A-"},{name:"MATH 121", grade:"B+"},{name:"Management Elective ", grade:"B+"},{name:"ECON 105", grade:"B+"},{name:"Fine Arts Core ", grade:"C-"},{name:"MATH 121", grade:"B+"},{name:"Construction Elective ", grade:"C-"},{name:"CE 473", grade:"C"},{name:"MATH 180", grade:"B-"},{name:"CHEM 121", grade:"C"},{name:"CE 497L", grade:"B"},{name:"MGMT 310", grade:"B"},{name:"CE 495", grade:"B"},{name:"CJ 130", grade:"C"}],track:"False",ptrack:0.362352720362}
{id:"23", semesters_attended: 7,courses_taken: [{name:"ME ES E  ME 407", grade:"B+"},{name:"CE 302", grade:"A-"},{name:"ENGL 110", grade:"CR"},{name:"PHYC 161", grade:"D-"},{name:"ENGL 120", grade:"C+"},{name:"ME ES E ", grade:"D-"}],track:"True",ptrack:0.740591169012}
{id:"24", semesters_attended: 4,courses_taken: [{name:"ECE 331", grade:"C+"},{name:"ECE 314", grade:"A-"},{name:"Humanities ", grade:"B-"},{name:"Social Science ", grade:"C+"},{name:"ECE 440", grade:"B"},{name:"PHYC 160", grade:"A"},{name:"ECE 330", grade:"A-"},{name:"PHYC 161L", grade:"A-"},{name:"Second Language ", grade:"A"},{name:"ENGL 120", grade:"D-"},{name:"ECE 440", grade:"C"},{name:"ECE 206L", grade:"B"},{name:"ECE 440", grade:"D-"},{name:"ECE 314", grade:"D-"},{name:"PHYC 161", grade:"B-"},{name:"ECE 419", grade:"C"},{name:"Technical Elective ", grade:"B-"},{name:"ECE 340", grade:"A-"},{name:"ECE 231", grade:"CR"},{name:"PHYC 161", grade:"B+"},{name:"ECE 206L", grade:"D-"},{name:"Technical Elective ", grade:"D-"},{name:"ENGL 219", grade:"C-"},{name:"ECE 101", grade:"B-"},{name:"ECE 213", grade:"D-"},{name:"Fine Arts ", grade:"A-"}],track:"False",ptrack:0.120773665965}
{id:"25", semesters_attended: 4,courses_taken: [{name:"Second Language Core ", grade:"A-"},{name:"MGMT 300", grade:"A"},{name:"CE 478", grade:"CR"},{name:"CE 279", grade:"A"},{name:"CE 370", grade:"CR"},{name:"CE 475", grade:"B"},{name:"CE 305", grade:"B"},{name:"CE 377", grade:"D-"},{name:"CE 376", grade:"B-"},{name:"ECON 105", grade:"CR"},{name:"MGMT 310", grade:"A-"},{name:"CE 497L", grade:"C-"},{name:"MATH 180", grade:"C"},{name:"ECON 105", grade:"B"},{name:"CE 477", grade:"CR"},{name:"CHEM 121", grade:"C+"},{name:"MGMT 300", grade:"B"},{name:"CE 279", grade:"D-"},{name:"ENGL 120", grade:"C+"},{name:"MATH 121", grade:"C"},{name:"MATH 121", grade:"C+"},{name:"CE 455", grade:"C-"},{name:"CE 473", grade:"A-"},{name:"Humanities Core ", grade:"C+"},{name:"Second Language Core ", grade:"CR"},{name:"Construction Elective ", grade:"C-"},{name:"CE 130", grade:"A"},{name:"EPS 101", grade:"B"},{name:"CE 171", grade:"C"},{name:"MATH 123", grade:"D-"},{name:"SB S C ", grade:"B"},{name:"Humanities Core ", grade:"C+"},{name:"CE 478", grade:"B"},{name:"PHYC 151", grade:"B+"},{name:"CE 376", grade:"A"},{name:"CS 150L", grade:"C-"},{name:"CE 376", grade:"D-"},{name:"CE 350", grade:"A-"},{name:"MGMT 202", grade:"A"},{name:"MATH 123", grade:"A"},{name:"CE 409", grade:"D-"}],track:"False",ptrack:0.345832135062}
{id:"26", semesters_attended: 6,courses_taken: [{name:"ECE T E ", grade:"D-"},{name:"MATH 163", grade:"C-"},{name:"Science with Lab ", grade:"C-"},{name:"PHYC 160", grade:"C"},{name:"ECE 331", grade:"CR"}],track:"True",ptrack:0.686797278243}
{id:"27", semesters_attended: 4,courses_taken: [{name:"Social & Behavioral Sciences Elective ", grade:"B-"},{name:"MGMT 326", grade:"B-"},{name:"MGMT 322", grade:"D-"},{name:"MGMT 306", grade:"C-"},{name:"MGMT 306", grade:"B+"},{name:"MGMT 498", grade:"B+"},{name:"Social & Behavioral Sciences Elective ", grade:"D-"},{name:"MATH 121", grade:"D-"},{name:"MGMT 450", grade:"D-"},{name:"Free Elective ", grade:"C+"},{name:"MGMT 303", grade:"CR"},{name:"Social & Behavioral Science Elective ", grade:"C+"}],track:"False",ptrack:0.19775031359}
{id:"28", semesters_attended: 7,courses_taken: [{name:"CHBE 493L", grade:"C-"},{name:"CHBE 253", grade:"B-"}],track:"True",ptrack:0.764892278496}
{id:"29", semesters_attended: 7,courses_taken: [{name:"CE 350", grade:"B"},{name:"CE 130", grade:"C"},{name:"CE 371", grade:"D-"},{name:"MATH 123", grade:"C"},{name:"MGMT 310", grade:"B+"},{name:"SB S C ", grade:"A"},{name:"EPS 101", grade:"B"},{name:"MATH 121", grade:"A-"},{name:"SB S C ", grade:"C-"},{name:"CE 475", grade:"B"},{name:"EPS 101", grade:"B-"},{name:"MGMT 202", grade:"B-"},{name:"CS 150L", grade:"A-"},{name:"Second Language Core ", grade:"C"},{name:"MGMT 202", grade:"CR"},{name:"CE 455", grade:"C"},{name:"Management Elective ", grade:"C-"},{name:"CE 474", grade:"CR"},{name:"SB S C ", grade:"A-"}],track:"True",ptrack:0.80892270486}
{id:"30", semesters_attended: 7,courses_taken: [{name:"Technical Elective ", grade:"C-"},{name:"Fine Arts ", grade:"C"},{name:"PHYC 160", grade:"B-"},{name:"Second Language Core ", grade:"B"},{name:"Second Language Core ", grade:"CR"},{name:"CHBE 454", grade:"B+"},{name:"Social Science ", grade:"C"},{name:"CHBE 253", grade:"B-"},{name:"ECON 105", grade:"B"},{name:"CHBE 361", grade:"CR"},{name:"CHBE 253", grade:"D-"},{name:"Second Language Core ", grade:"C+"},{name:"PHYC 160", grade:"C+"},{name:"Basic Engineering Elective ", grade:"B+"},{name:"Basic Science Concentration ", grade:"D-"},{name:"ENGL 110", grade:"C+"},{name:"CHEM 303L", grade:"C+"},{name:"CHBE 312", grade:"C+"},{name:"Advanced Chemistry Concentration ", grade:"C+"},{name:"CHEM 122", grade:"C"}],track:"True",ptrack:0.856678625462}
{id:"31", semesters_attended: 2,courses_taken: [{name:"MGMT 328", grade:"B+"},{name:"Upper Division Humanities ", grade:"C+"},{name:"Foreign Language ", grade:"C-"},{name:"Fine Arts Requirement ", grade:"CR"},{name:"ECON 106", grade:"B-"},{name:"MGMT 202", grade:"C-"},{name:"MGMT 498", grade:"D-"},{name:"STAT 145  STAT 245  STAT 345 ", grade:"A-"},{name:"ENGL 219", grade:"D-"},{name:"Free Elective ", grade:"D-"},{name:"MGMT 303", grade:"A"},{name:"Free Elective ", grade:"C"},{name:"MGMT 322", grade:"D-"},{name:"MGMT 300", grade:"B-"},{name:"MGMT 300", grade:"C"},{name:"ENGL 110", grade:"B-"},{name:"Free Electives ", grade:"C-"},{name:"MATH 121", grade:"B-"},{name:"MGMT 303", grade:"C-"},{name:"MGMT 328", grade:"B+"},{name:"Foreign Language ", grade:"D-"},{name:"MGMT 340", grade:"C-"},{name:"MGMT 308", grade:"C"},{name:"Social & Behavioral Science Elective ", grade:"A"},{name:"Free Elective ", grade:"C-"}],track:"False",ptrack:0.420587545632}
{id:"32", semesters_attended: 6,courses_taken: [{name:"ECE 330", grade:"A-"},{name:"Fine Arts ", grade:"A-"},{name:"ENGL 110", grade:"C"}],track:"True",ptrack:0.996692813315}
{id:"33", semesters_attended: 1,courses_taken: [{name:"Fine Arts ", grade:"B"},{name:"LAIS 399", grade:"D-"},{name:"Upper Division Area of Focus 1 ", grade:"C+"},{name:"LAIS 311", grade:"A"},{name:"Lower Division Elective/Pre-requisite ", grade:"B"},{name:"Upper Division Area of Focus 1 ", grade:"C-"},{name:"Upper Division Area of Focus 1 ", grade:"B-"},{name:"LAIS 399", grade:"C-"},{name:"LAIS 499", grade:"C+"},{name:"Physical and Natural Science ", grade:"A-"},{name:"LAIS 310", grade:"CR"},{name:"LAIS 150", grade:"A"},{name:"Lower Division Elective/Pre-requisite ", grade:"B-"},{name:"Physical and Natural Science ", grade:"B-"},{name:"Humanities ", grade:"B"},{name:"LAIS 399", grade:"C"},{name:"Social Behavioral Science ", grade:"A-"},{name:"LAIS 310", grade:"CR"},{name:"Fine Arts ", grade:"B"},{name:"Upper Division Area of Focus 2 ", grade:"CR"},{name:"Freshman Academic Choice ", grade:"B-"}],track:"False",ptrack:0.450135203635}
{id:"34", semesters_attended: 4,courses_taken: [{name:"CHBE 311", grade:"C"},{name:"CHBE 454", grade:"B-"},{name:"CHBE 418", grade:"D-"},{name:"CHBE 318L", grade:"CR"},{name:"CHBE 311", grade:"B"},{name:"Second Language Core ", grade:"A-"},{name:"Humanities ", grade:"B+"},{name:"CHBE 311", grade:"B"},{name:"Basic Engineering Elective ", grade:"B"},{name:"CHBE 419L", grade:"C+"},{name:"MATH 316", grade:"C"},{name:"Basic Science Concentration ", grade:"C"},{name:"CS 151L", grade:"B-"},{name:"CHBE 361", grade:"D-"},{name:"Advanced Chemistry Concentration ", grade:"C-"},{name:"Basic Engineering Elective ", grade:"B"},{name:"CHBE 319L", grade:"D-"},{name:"Basic Science Concentration ", grade:"C"},{name:"CHEM 124L", grade:"D-"},{name:"Basic Science Concentration ", grade:"B"},{name:"CHBE 461", grade:"B+"}],track:"True",ptrack:0.511557067106}
{id:"35", semesters_attended: 1,courses_taken: [{name:"SB S C ", grade:"CR"},{name:"CE 310", grade:"B-"},{name:"CE 475", grade:"B"}],track:"False",ptrack:0.109829098902}
{id:"36", semesters_attended: 2,courses_taken: [{name:"MATH 180", grade:"B"},{name:"Financial Management Elective ", grade:"A-"},{name:"MGMT 308", grade:"A"},{name:"Fine Arts Requirement ", grade:"CR"},{name:"MGMT 498", grade:"A"},{name:"Social & Behavioral Sciences Elective ", grade:"CR"},{name:"Social & Behavioral Science Elective ", grade:"C"},{name:"ENGL 219 OR ENGL 220 ", grade:"A"},{name:"MGMT 308", grade:"C"},{name:"MGMT 426", grade:"B+"},{name:"ENGL 120", grade:"B"},{name:"ENGL 110 ", grade:"C+"},{name:"MGMT 306", grade:"C"},{name:"Free Electives ", grade:"B+"},{name:"MATH 180", grade:"A-"},{name:"Upper Division Humanities ", grade:"C"},{name:"MGMT 202", grade:"C"}],track:"True",ptrack:0.72712055414}
{id:"37", semesters_attended: 1,courses_taken: [{name:"ME 306", grade:"C+"},{name:"CE 409", grade:"B+"},{name:"MATH 163", grade:"B"},{name:"MATH 264", grade:"A"},{name:"PHYC 167", grade:"A-"},{name:"CE 360", grade:"B-"},{name:"CHEM 123L", grade:"C+"},{name:"BIOL 110", grade:"CR"},{name:"MATH 264", grade:"D-"},{name:"CE 350", grade:"C-"},{name:"Fine Arts Core ", grade:"A"},{name:"CE 499", grade:"C+"},{name:"MATH 264", grade:"B+"},{name:"ENGL 120", grade:"A"},{name:"STAT 345", grade:"B+"},{name:"CE 335", grade:"C-"},{name:"PHYC 167", grade:"D-"},{name:"Second Language Core ", grade:"D-"},{name:"Humanities Core ", grade:"CR"},{name:"CE 302", grade:"B-"},{name:"MATH 162", grade:"B+"},{name:"Fine Arts Core ", grade:"C"},{name:"CE 350", grade:"C"},{name:"CE 409", grade:"B"},{name:"ECON 105", grade:"D-"},{name:"CE 382", grade:"C-"},{name:"CE 335", grade:"CR"},{name:"PHYC 161", grade:"B+"}],track:"False",ptrack:0.128692797614}
{id:"38", semesters_attended: 1,courses_taken: [{name:"ECON 303", grade:"C-"},{name:"ECON 105", grade:"A-"},{name:"Physical and Natural Science ", grade:"A"},{name:"Fine Arts ", grade:"B"},{name:"Minor or 2nd Major Requirement ", grade:"B+"},{name:"ECON E 6 300 ", grade:"A-"},{name:"Econ Elective 1 (200-level) ", grade:"B-"},{name:"2nd Major or Upper-Division Elective ", grade:"B"},{name:"Minor or 2nd Major Requirement ", grade:"C+"},{name:"Minor or 2nd Major Requirement ", grade:"C-"},{name:"2nd Major or Upper-Division Elective ", grade:"C-"},{name:"Minor or 2nd Major Requirement ", grade:"A"},{name:"ECON E 2 300 ", grade:"D-"},{name:"ENGL 110", grade:"C+"},{name:"STAT 145", grade:"A"},{name:"ECON E 2 300 ", grade:"C+"},{name:"ECON E 4 300 ", grade:"B"},{name:"ENGL 120", grade:"A-"},{name:"2nd Major or Upper-Division Elective ", grade:"D-"},{name:"ECON 105", grade:"B+"},{name:"ECON 303", grade:"B-"}],track:"False",ptrack:0.131640158646}
{id:"39", semesters_attended: 2,courses_taken: [{name:"MGMT 303", grade:"B+"},{name:"PSY 105 OR SOC 101 ", grade:"CR"},{name:"MATH 180", grade:"B-"},{name:"Free electives ", grade:"B-"},{name:"CS 150L", grade:"D-"},{name:"Physical and Natural Science with Lab ", grade:"B+"},{name:"STAT 145 OR STAT 245 OR STAT 345 ", grade:"B-"},{name:"Physical and Natural Science with Lab ", grade:"C"},{name:"Free electives ", grade:"A-"},{name:"MATH 121", grade:"B+"},{name:"Upper Division Humanities ", grade:"C+"},{name:"ECON 105", grade:"C+"},{name:"ENGL 219 OR ENGL 220 ", grade:"B+"},{name:"PSY 105 OR SOC 101 ", grade:"B"},{name:"CS 150L", grade:"B+"},{name:"Financial Management Elective ", grade:"C+"},{name:"Financial Management Elective ", grade:"C+"}],track:"False",ptrack:0.0748150314525}
{id:"40", semesters_attended: 6,courses_taken: [{name:"STAT 345", grade:"A-"},{name:"CHEM 121", grade:"C-"},{name:"CE B E ", grade:"B-"},{name:"CE 360", grade:"A"},{name:"Humanities Core ", grade:"C-"},{name:"Humanities Core ", grade:"C"},{name:"CE 283", grade:"C+"},{name:"CE 350", grade:"B+"},{name:"CE B E ", grade:"C"},{name:"MATH 264", grade:"B"},{name:"CE 409", grade:"C"},{name:"Humanities Core ", grade:"A-"},{name:"CE B E ", grade:"D-"},{name:"Fine Arts Core ", grade:"C+"},{name:"Fine Arts Core ", grade:"B+"},{name:"BIOL 110", grade:"B-"},{name:"Humanities Core ", grade:"B-"},{name:"CHEM 121", grade:"D-"},{name:"CE B E ", grade:"B+"},{name:"PHYC 161", grade:"B-"},{name:"MATH 264", grade:"C+"},{name:"MATH 316", grade:"A-"},{name:"CE 160L", grade:"CR"},{name:"CE 335", grade:"A-"}],track:"True",ptrack:0.968927788247}
{id:"41", semesters_attended: 6,courses_taken: [{name:"ME 306", grade:"A"},{name:"Science Elective ", grade:"CR"},{name:"CHEM 121", grade:"B+"},{name:"CE 360", grade:"B"},{name:"Fine Arts Core ", grade:"CR"},{name:"STAT 345", grade:"C-"},{name:"ME 306", grade:"B+"},{name:"CE 370", grade:"B+"}],track:"True",ptrack:0.587685264568}
{id:"42", semesters_attended: 1,courses_taken: [{name:"Humanities Core Course ", grade:"D-"},{name:"ME 318L", grade:"B"},{name:"ME 360L", grade:"B-"},{name:"Humanities Core Course ", grade:"C+"},{name:"ME 352L", grade:"D-"},{name:"MATH 316", grade:"A"},{name:"MATH 162", grade:"C+"},{name:"MATH 316", grade:"D-"},{name:"PHYC 161", grade:"B-"},{name:"ME 306", grade:"A-"},{name:"MATH 163", grade:"CR"},{name:"Writing and Speaking Core Course ", grade:"C+"}],track:"True",ptrack:0.571850194879}
{id:"43", semesters_attended: 5,courses_taken: [{name:"Fine Arts ", grade:"A-"},{name:"Humanities ", grade:"D-"},{name:"MATH 121 OR MATH 129 OR STAT 145 ", grade:"CR"},{name:"Upper Division Area of Focus 1 ", grade:"CR"},{name:"MATH 121 OR MATH 129 OR STAT 145 ", grade:"CR"},{name:"LAIS 399", grade:"D-"},{name:"LAIS 311", grade:"B-"},{name:"Upper Division Area of Focus 1 ", grade:"B"},{name:"LAIS 399", grade:"A"},{name:"Freshman Academic Choice ", grade:"CR"},{name:"Upper Division Area of Focus 1 ", grade:"D-"},{name:"Humanities ", grade:"C-"},{name:"Physical and Natural Science ", grade:"C-"}],track:"False",ptrack:0.310920684869}
{id:"44", semesters_attended: 2,courses_taken: [{name:"MGMT 202", grade:"C-"},{name:"Second Language Core ", grade:"D-"},{name:"CE 160L", grade:"C+"},{name:"ENGL 219", grade:"B+"},{name:"CE 283", grade:"A"},{name:"Humanities ", grade:"C"},{name:"CS 151L", grade:"CR"},{name:"CE 283", grade:"C+"},{name:"CE 495", grade:"A"},{name:"CE 160L", grade:"B+"},{name:"MATH 316", grade:"B-"},{name:"SB S C ", grade:"A-"},{name:"MATH 163", grade:"CR"},{name:"ENGL 120", grade:"B"},{name:"CE 283", grade:"CR"},{name:"CE 475", grade:"D-"},{name:"ME 306", grade:"C"},{name:"CE 308", grade:"A"}],track:"True",ptrack:0.53395231974}
{id:"45", semesters_attended: 7,courses_taken: [{name:"ME 302", grade:"A-"},{name:"MATH 316", grade:"B+"},{name:"Second Language Core Course or ME 406L: Formula SAE Racecar Design ** ", grade:"B+"},{name:"ME 360L", grade:"C"},{name:"MATH 162", grade:"C+"},{name:"Humanities Core Course ", grade:"CR"},{name:"CHEM 121", grade:"A"},{name:"CE 202", grade:"C+"},{name:"ME 160L", grade:"D-"},{name:"ME 460", grade:"B-"},{name:"ME 302", grade:"CR"},{name:"Fine Arts Core Course ", grade:"B+"},{name:"MATH 162", grade:"C-"},{name:"ME 317L", grade:"D-"},{name:"MATH 162", grade:"A-"},{name:"ME 357", grade:"B"},{name:"MATH 316", grade:"C"},{name:"ME 459", grade:"B-"},{name:"ME 301", grade:"A-"},{name:"PHYC 161", grade:"D-"},{name:"CS 151L", grade:"CR"},{name:"ENGL 110", grade:"C-"},{name:"CS 151L", grade:"B-"},{name:"ME 320L", grade:"B+"},{name:"ME 260L", grade:"B+"},{name:"CHEM 124L", grade:"D-"},{name:"ME 302", grade:"C-"},{name:"MATH 264", grade:"C+"},{name:"ME ES E ", grade:"C"},{name:"Writing and Speaking Core Course ", grade:"C"},{name:"ECE 203", grade:"C"},{name:"MATH 163", grade:"C-"},{name:"ME 260L", grade:"A-"},{name:"ECON 105", grade:"C"},{name:"ME 320L", grade:"B+"},{name:"MATH 162", grade:"C+"},{name:"ME 360L", grade:"A-"},{name:"ME 352L", grade:"D-"},{name:"ME 380", grade:"B"},{name:"ME 352L", grade:"C"}],track:"True",ptrack:0.835574742464}
{id:"46", semesters_attended: 7,courses_taken: [{name:"2nd Major or Upper-Division Elective ", grade:"B"},{name:"ENGL 110", grade:"B"},{name:"ECON 106", grade:"D-"},{name:"ECON 309", grade:"B+"},{name:"ECON E 3 300 ", grade:"B"},{name:"Physical and Natural Science ", grade:"A-"},{name:"CJ 130  PHIL 156  ENGL 219  ENGL 220 ", grade:"C-"},{name:"Econ Elective 1 (200-level) ", grade:"B+"},{name:"ECON 106", grade:"B"},{name:"2nd Major or Upper-Division Elective ", grade:"B"},{name:"Minor or 2nd Major Requirement ", grade:"B"},{name:"Minor or 2nd Major Requirement ", grade:"C-"},{name:"Minor or 2nd Major Requirement ", grade:"B+"},{name:"UD E ", grade:"CR"},{name:"Fine Arts ", grade:"C+"},{name:"STAT 145", grade:"B+"},{name:"Second Language ", grade:"A-"},{name:"2nd Major or Upper-Division Elective ", grade:"A-"},{name:"Minor or 2nd Major Requirement ", grade:"C+"},{name:"ENGL 110", grade:"B-"},{name:"Minor or 2nd Major Requirement ", grade:"D-"},{name:"UD E ", grade:"A"},{name:"ECON 105", grade:"CR"},{name:"Humanities ", grade:"C-"},{name:"ECON 303", grade:"B+"},{name:"Humanities ", grade:"A"},{name:"ENGL 120", grade:"B"},{name:"CJ 130  PHIL 156  ENGL 219  ENGL 220 ", grade:"C+"},{name:"2nd Major or Upper-Division Elective ", grade:"B-"},{name:"Fine Arts ", grade:"B+"},{name:"Minor or 2nd Major Requirement ", grade:"C"},{name:"ECON 309", grade:"D-"},{name:"Physical and Natural Science ", grade:"A"},{name:"Minor or 2nd Major Requirement ", grade:"CR"},{name:"Humanities ", grade:"B"}],track:"True",ptrack:0.746280909329}
{id:"47", semesters_attended: 7,courses_taken: [{name:"CE 382", grade:"CR"},{name:"CE 335", grade:"A-"},{name:"CE 283", grade:"C+"},{name:"PHYC 160", grade:"CR"},{name:"CE 382", grade:"A-"},{name:"CE 305", grade:"C"},{name:"CE 308", grade:"B"},{name:"PHYC 160", grade:"C+"},{name:"Core Social/Behavioral Science ", grade:"C-"},{name:"ECON 105", grade:"C"},{name:"BIOL 110", grade:"C-"},{name:"PHYC 161", grade:"C-"},{name:"CE 331", grade:"C"},{name:"Humanities Core ", grade:"D-"},{name:"CE D E ", grade:"B"},{name:"PHYC 161", grade:"A"},{name:"PHYC 161", grade:"A-"},{name:"CE 331", grade:"A-"},{name:"ENGL 219", grade:"D-"},{name:"ECON 105", grade:"C"},{name:"CE 372", grade:"C"},{name:"PHYC 161", grade:"B-"},{name:"STAT 345", grade:"C+"},{name:"PHYC 161", grade:"C"},{name:"CE 160L", grade:"B-"},{name:"CE 372", grade:"CR"},{name:"CHEM 121", grade:"C-"},{name:"CE 409", grade:"C+"},{name:"CE D E ", grade:"C+"}],track:"True",ptrack:0.739005601442}
{id:"48", semesters_attended: 3,courses_taken: [{name:"Humanities ", grade:"B"},{name:"Second Language ", grade:"A-"},{name:"Minor or General Elective ", grade:"D-"},{name:"Lab Science ", grade:"B+"},{name:"Minor or General Elective ", grade:"C-"},{name:"Lab Science ", grade:"D-"},{name:"CS 460", grade:"B-"},{name:"CS 460", grade:"CR"},{name:"CS 261", grade:"C-"},{name:"Minor or General Elective ", grade:"A-"},{name:"CS 357L", grade:"C"},{name:"Writing and Speaking ", grade:"A-"},{name:"CS E ", grade:"A"},{name:"CS 357L", grade:"A"},{name:"MATH 314", grade:"A"},{name:"Minor or General Elective ", grade:"CR"},{name:"CS 251L", grade:"B-"},{name:"CS 460", grade:"B-"},{name:"CS 481", grade:"B"},{name:"CS 241L", grade:"D-"},{name:"Minor or General Elective ", grade:"A"},{name:"Writing and Speaking ", grade:"C+"},{name:"CS 460", grade:"B+"},{name:"Minor or General Elective ", grade:"C-"},{name:"CS 362L", grade:"B"},{name:"Social Science ", grade:"A"}],track:"True",ptrack:0.947888839755}
{id:"49", semesters_attended: 3,courses_taken: [{name:"CE 360", grade:"C-"}],track:"False",ptrack:0.26727960995}
{id:"50", semesters_attended: 4,courses_taken: [{name:"STAT 345", grade:"B"},{name:"CHEM 123L", grade:"CR"},{name:"Humanities Core ", grade:"B+"},{name:"BIOL 110", grade:"CR"},{name:"CE 350", grade:"C+"},{name:"Humanities Core ", grade:"B-"},{name:"CE 202", grade:"B-"},{name:"CE 335", grade:"C"},{name:"MATH 162", grade:"C+"},{name:"CE B E ", grade:"B"},{name:"BIOL 110", grade:"A-"},{name:"CE 305", grade:"D-"},{name:"CE 305", grade:"B"},{name:"CE 160L", grade:"CR"},{name:"CE B E ", grade:"A-"},{name:"CE D E ", grade:"C-"},{name:"CE 202", grade:"A-"},{name:"STAT 345", grade:"C"},{name:"CE B E ", grade:"A-"},{name:"PHYC 160", grade:"B-"},{name:"MATH 316", grade:"B-"},{name:"PHYC 161", grade:"CR"},{name:"MATH 264", grade:"C+"},{name:"CE 360", grade:"CR"},{name:"ECE 203", grade:"C+"},{name:"PHYC 160", grade:"C-"},{name:"Fine Arts Core ", grade:"A-"},{name:"Core Social/Behavioral Science ", grade:"C+"},{name:"PHYC 167", grade:"D-"},{name:"PHYC 161", grade:"B-"},{name:"MATH 163", grade:"C+"},{name:"PHYC 160", grade:"C-"},{name:"ECON 105", grade:"A"},{name:"BIOL 110", grade:"B-"},{name:"MATH 264", grade:"C+"},{name:"ECON 105", grade:"C+"},{name:"ME 306", grade:"C+"}],track:"False",ptrack:0.093982773926}
{id:"51", semesters_attended: 1,courses_taken: [{name:"ME 370", grade:"B+"},{name:"ME T E ", grade:"C"},{name:"ME 260L", grade:"B"},{name:"MATH 264", grade:"B"},{name:"ME 460", grade:"B"},{name:"ENGL 110", grade:"C"},{name:"CHEM 123L", grade:"B"},{name:"CE 302", grade:"D-"},{name:"ME 380", grade:"C+"},{name:"ME 459", grade:"CR"},{name:"MATH 264", grade:"CR"},{name:"ME T E ", grade:"A"},{name:"ME 302", grade:"A"},{name:"ME 459", grade:"C-"},{name:"ME 352L", grade:"B+"},{name:"CE 202", grade:"A-"},{name:"ME 317L", grade:"B-"},{name:"ME T E ", grade:"B-"},{name:"PHYC 161", grade:"B"},{name:"ME ES E ", grade:"C+"},{name:"MATH 163", grade:"A"},{name:"ME ES E ", grade:"C-"},{name:"ME 317L", grade:"D-"},{name:"ME 459", grade:"D-"}],track:"False",ptrack:0.256706964844}
{id:"52", semesters_attended: 7,courses_taken: [{name:"CE 160L", grade:"C+"},{name:"PHYC 161", grade:"B-"},{name:"CHEM 121", grade:"B+"}],track:"False",ptrack:0.493067520671}
{id:"53", semesters_attended: 3,courses_taken: [{name:"EE C C ", grade:"C+"},{name:"ECE 101", grade:"B+"},{name:"ECE 101", grade:"A-"},{name:"MATH 264", grade:"C+"},{name:"ECE 321", grade:"C+"},{name:"PHYC 161L", grade:"D-"},{name:"ENGL 110", grade:"A-"},{name:"Technical Elective ", grade:"C"},{name:"ECE 344L", grade:"CR"},{name:"EE T E ", grade:"CR"},{name:"CHEM 123L", grade:"B"},{name:"PHYC 262", grade:"CR"},{name:"ECE 101", grade:"B"},{name:"EE C C ", grade:"A"},{name:"MATH 162", grade:"B"},{name:"MATH 314", grade:"C"},{name:"ECE 101", grade:"B"},{name:"ENGL 110", grade:"C-"},{name:"MATH 163", grade:"CR"},{name:"ECE 419", grade:"B+"},{name:"Fine Arts ", grade:"D-"},{name:"ECE 419", grade:"CR"}],track:"False",ptrack:0.274734917621}
{id:"54", semesters_attended: 2,courses_taken: [{name:"CS 460", grade:"B+"},{name:"ENGL 110", grade:"C+"},{name:"CS E ", grade:"C+"},{name:"Lab Science ", grade:"C+"},{name:"Minor or General Elective ", grade:"C+"},{name:"Lab Science ", grade:"CR"},{name:"CS 460", grade:"D-"},{name:"CS 293", grade:"B-"},{name:"CS 152L", grade:"B+"},{name:"ENGL 120", grade:"D-"},{name:"STAT 345", grade:"C+"},{name:"CS 261", grade:"A"},{name:"Lab Science ", grade:"D-"},{name:"Social Science ", grade:"C+"},{name:"Lab Science ", grade:"B+"},{name:"Writing and Speaking ", grade:"A-"},{name:"STAT 345", grade:"B"},{name:"ENGL 110", grade:"B-"},{name:"Minor or General Elective ", grade:"C+"},{name:"Minor or General Elective ", grade:"B"},{name:"Lab Science ", grade:"C"},{name:"CS 460", grade:"C"},{name:"CS 241L", grade:"C-"},{name:"MATH 162", grade:"B+"},{name:"CS 251L", grade:"A"},{name:"Minor or General Elective ", grade:"D-"},{name:"Fine Arts ", grade:"C-"},{name:"ECE 238L", grade:"C"},{name:"CS 293", grade:"B"},{name:"CS 241L", grade:"B"}],track:"True",ptrack:0.745282263812}
{id:"55", semesters_attended: 5,courses_taken: [{name:"ECON 105", grade:"A"},{name:"SB S C ", grade:"D-"},{name:"PHYC 151", grade:"B+"},{name:"MGMT 310", grade:"B"},{name:"Humanities Core ", grade:"B-"},{name:"CE 473", grade:"D-"},{name:"Fine Arts Core ", grade:"A-"},{name:"CS 150L", grade:"B+"},{name:"CE 455", grade:"C+"},{name:"CE 350", grade:"B-"},{name:"CE 495", grade:"A-"},{name:"CJ 130", grade:"C-"},{name:"MGMT 300", grade:"B-"},{name:"CE 478", grade:"CR"},{name:"CE 474", grade:"C-"},{name:"CHEM 123L", grade:"CR"},{name:"Humanities Core ", grade:"C"}],track:"False",ptrack:0.422284093395}
{id:"56", semesters_attended: 3,courses_taken: [{name:"MATH 316", grade:"C+"},{name:"Humanities Core Course ", grade:"CR"},{name:"CHEM 123L", grade:"B+"},{name:"Fine Arts Core Course ", grade:"C-"},{name:"CHEM 122", grade:"B+"},{name:"Humanities Core Course ", grade:"A"},{name:"Second Language Core Course or ME 406L: Formula SAE Racecar Design ** ", grade:"D-"},{name:"ME ES E ", grade:"A"},{name:"ME 318L", grade:"B"},{name:"ME ES E ", grade:"B+"},{name:"Second Language Core Course or ME 406L: Formula SAE Racecar Design ** ", grade:"C"},{name:"MATH 316", grade:"C+"},{name:"MATH 162", grade:"B-"},{name:"CHEM 121", grade:"B"},{name:"ME ES E ", grade:"C-"},{name:"MATH 163", grade:"B-"},{name:"ME T E ", grade:"A"},{name:"PHYC 160", grade:"C+"},{name:"Second Language Core Course or ME 406L: Formula SAE Racecar Design ** ", grade:"D-"},{name:"ME 352L", grade:"B+"},{name:"MATH 264", grade:"CR"},{name:"MATH 162", grade:"C"},{name:"PHYC 161", grade:"B+"},{name:"ENGL 120", grade:"A-"},{name:"ME 301", grade:"B-"},{name:"Writing and Speaking Core Course ", grade:"D-"},{name:"ME 160L", grade:"C-"},{name:"Humanities Core Course ", grade:"B"},{name:"Humanities Core Course ", grade:"B"},{name:"ECON 105", grade:"B+"},{name:"Technical Elective ", grade:"B"},{name:"ME ES E  ME 407", grade:"B-"},{name:"MATH 264", grade:"C+"},{name:"Second Language Core Course or ME 406L: Formula SAE Racecar Design ** ", grade:"C-"},{name:"ME 301", grade:"C-"},{name:"ECON 105", grade:"C-"},{name:"ME 459", grade:"A-"},{name:"CHEM 124L", grade:"C+"},{name:"MATH 162", grade:"B-"},{name:"MATH 264", grade:"A-"},{name:"ME 459", grade:"B-"},{name:"MATH 316", grade:"A"}],track:"False",ptrack:0.271384298216}
{id:"57", semesters_attended: 6,courses_taken: [{name:"Lab Science ", grade:"B"},{name:"Minor or General Elective ", grade:"C+"},{name:"CS E ", grade:"C+"},{name:"Social Science ", grade:"B"},{name:"CS 460", grade:"A"},{name:"CS 341L", grade:"D-"},{name:"Writing and Speaking ", grade:"B-"},{name:"CS E ", grade:"D-"},{name:"CS 361L", grade:"B-"},{name:"Second Language ", grade:"B-"},{name:"Humanities ", grade:"B-"},{name:"Lab Science ", grade:"C-"},{name:"Minor or General Elective ", grade:"C-"},{name:"CS E ", grade:"C-"},{name:"CS 460", grade:"D-"}],track:"False",ptrack:0.416175952419}
{id:"58", semesters_attended: 6,courses_taken: [{name:"Second Language Core ", grade:"B+"},{name:"NE 413L", grade:"B+"},{name:"Technical Elective ", grade:"D-"},{name:"ENGL 219", grade:"B"},{name:"NE 317", grade:"C+"},{name:"ENGL 120", grade:"D-"},{name:"NE 413L", grade:"B+"},{name:"CHEM 123L", grade:"A"},{name:"NE 317", grade:"B-"},{name:"NE 231", grade:"CR"},{name:"CHEM 122", grade:"CR"},{name:"NE 498L", grade:"C"},{name:"MATH 316", grade:"C-"},{name:"CHEM 121", grade:"A"},{name:"PHYC 161", grade:"B-"},{name:"NE 310", grade:"C-"},{name:"MATH 264", grade:"CR"},{name:"Technical Elective ", grade:"D-"},{name:"MATH 163", grade:"B"}],track:"True",ptrack:0.750340428558}
{id:"59", semesters_attended: 1,courses_taken: [{name:"CE 202", grade:"B"},{name:"CE 370", grade:"B-"},{name:"CE 477", grade:"B"},{name:"Humanities Core ", grade:"B-"},{name:"Humanities Core ", grade:"C+"},{name:"CE 302", grade:"D-"},{name:"ENGL 120", grade:"D-"},{name:"CE 308", grade:"CR"},{name:"ENGL 120", grade:"C+"},{name:"PHYC 161", grade:"B+"},{name:"CE 475", grade:"D-"},{name:"CE 202", grade:"C"},{name:"CE 310", grade:"B"},{name:"CE 160L", grade:"B"},{name:"ENGL 120", grade:"CR"},{name:"CE 499", grade:"B-"},{name:"ENGL 120", grade:"D-"},{name:"Second Language Core ", grade:"B"},{name:"ENGL 110", grade:"CR"},{name:"ENGL 120", grade:"C+"},{name:"CE 370", grade:"A-"},{name:"MATH 264", grade:"D-"},{name:"Fine Arts Core ", grade:"D-"},{name:"CE 370", grade:"A"},{name:"CE 409", grade:"C+"},{name:"CE 370", grade:"C+"},{name:"CE 409", grade:"C-"},{name:"CE 360", grade:"C-"},{name:"PHYC 160", grade:"D-"},{name:"CS 151L", grade:"A"},{name:"MATH 162", grade:"B+"},{name:"PHYC 161", grade:"C-"},{name:"CE 495", grade:"CR"},{name:"CE 302", grade:"C-"},{name:"CE 310", grade:"C"},{name:"CE 455", grade:"B+"},{name:"CE 495", grade:"B-"}],track:"True",ptrack:0.662058836692}
{id:"60", semesters_attended: 3,courses_taken: [{name:"MATH 162", grade:"B-"},{name:"Minor or 2nd Major Requirement ", grade:"A"},{name:"ECON E 5 400 ", grade:"B+"},{name:"Physical and Natural Science ", grade:"B-"},{name:"ECON 300", grade:"CR"},{name:"Econ Elective 1 (200-level) ", grade:"C+"},{name:"ECON E 3 300 ", grade:"C-"},{name:"ECON 309", grade:"B+"},{name:"Freshman Academic Choice ", grade:"D-"},{name:"Minor or 2nd Major Requirement ", grade:"C+"},{name:"Minor or 2nd Major Requirement ", grade:"B"},{name:"Fine Arts ", grade:"C-"},{name:"Minor or 2nd Major Requirement ", grade:"B"},{name:"2nd Major or Upper-Division Elective ", grade:"D-"}],track:"True",ptrack:0.556512581068}
{id:"61", semesters_attended: 3,courses_taken: [{name:"ME 260L", grade:"B"},{name:"ME 380", grade:"CR"},{name:"CHEM 121", grade:"C"},{name:"PHYC 161", grade:"A-"},{name:"ECON 105", grade:"B"},{name:"CE 202", grade:"A"},{name:"CE 202", grade:"B+"},{name:"ME 459", grade:"C-"},{name:"ME 301", grade:"A"},{name:"CE 202", grade:"B+"},{name:"ME 317L", grade:"CR"},{name:"ME 260L", grade:"CR"},{name:"ME T E ", grade:"C-"},{name:"ECE 203", grade:"B-"},{name:"CHEM 122", grade:"B-"},{name:"CS 151L", grade:"A-"},{name:"MATH 316", grade:"B-"},{name:"Humanities Core Course ", grade:"B+"},{name:"ENGL 120", grade:"D-"},{name:"Writing and Speaking Core Course ", grade:"B"}],track:"True",ptrack:0.533964347305}
{id:"62", semesters_attended: 1,courses_taken: [{name:"Physical and Natural Science ", grade:"B-"},{name:"Upper Division Elective ", grade:"D-"},{name:"STAT 145", grade:"CR"},{name:"Minor or 2nd Major Requirement ", grade:"B-"},{name:"Humanities ", grade:"C"},{name:"Minor or 2nd Major Requirement ", grade:"A-"},{name:"Minor or 2nd Major Requirement ", grade:"CR"},{name:"Fine Arts ", grade:"B-"},{name:"Minor or 2nd Major Requirement ", grade:"CR"},{name:"Humanities ", grade:"C-"},{name:"ECON 300", grade:"D-"},{name:"Humanities ", grade:"B-"},{name:"ECON 309", grade:"B-"},{name:"STAT 145", grade:"C"},{name:"ECON E 3 300 ", grade:"C-"},{name:"ECON 309", grade:"C+"},{name:"STAT 145", grade:"A"},{name:"Physical and Natural Science ", grade:"A"},{name:"2nd Major or Upper-Division Elective ", grade:"C-"},{name:"Humanities ", grade:"C-"},{name:"Econ Elective 1 (200-level) ", grade:"C+"},{name:"2nd Major or Upper-Division Elective ", grade:"B-"},{name:"Minor or 2nd Major Requirement ", grade:"C+"},{name:"MATH 162", grade:"A"},{name:"STAT 145", grade:"B-"},{name:"Physical and Natural Science ", grade:"B+"},{name:"Upper Division Elective ", grade:"B"},{name:"ENGL 110", grade:"A-"},{name:"Second Language ", grade:"C-"},{name:"Minor or 2nd Major Requirement ", grade:"C+"},{name:"ECON 105", grade:"C-"},{name:"ENGL 110", grade:"C"},{name:"Physical and Natural Science ", grade:"C+"},{name:"ECON 307", grade:"C+"},{name:"Minor or 2nd Major Requirement ", grade:"B+"}],track:"False",ptrack:0.0653079952326}
{id:"63", semesters_attended: 7,courses_taken: [{name:"ENGL 120", grade:"A-"},{name:"CHEM 121", grade:"B-"},{name:"ENGL 219", grade:"B-"},{name:"CE 497L", grade:"C"},{name:"Management Elective ", grade:"C"},{name:"CE 370", grade:"C-"},{name:"ECON 105", grade:"C+"},{name:"ENGL 219", grade:"B+"},{name:"CE 473", grade:"D-"},{name:"STAT 145", grade:"C+"},{name:"CE 130", grade:"CR"},{name:"MATH 123", grade:"C+"},{name:"CE 473", grade:"C-"},{name:"CE 370", grade:"C-"},{name:"CE 409", grade:"B+"},{name:"CE 350", grade:"A"},{name:"CE 377", grade:"CR"},{name:"MGMT 310", grade:"B+"},{name:"CE 497L", grade:"A"},{name:"EPS 101", grade:"A-"},{name:"CE 283", grade:"A-"},{name:"CHEM 123L", grade:"C+"},{name:"MGMT 300", grade:"CR"},{name:"Humanities Core ", grade:"D-"},{name:"PHYC 151", grade:"C"},{name:"EPS 101", grade:"C-"},{name:"CE 495", grade:"D-"},{name:"CS 150L", grade:"C+"},{name:"CE 130", grade:"A-"},{name:"SB S C ", grade:"A-"},{name:"CS 150L", grade:"CR"},{name:"CE 171", grade:"A"},{name:"MGMT 300", grade:"C-"},{name:"CE 495", grade:"CR"},{name:"CE 377", grade:"A-"},{name:"CE 497L", grade:"B"},{name:"ECON 105", grade:"A-"},{name:"MGMT 300", grade:"B+"},{name:"MATH 180", grade:"A-"}],track:"True",ptrack:0.643667492048}
{id:"64", semesters_attended: 7,courses_taken: [{name:"NE 410", grade:"D-"},{name:"SB C ", grade:"B-"},{name:"MATH 264", grade:"B"},{name:"Technical Elective ", grade:"C-"},{name:"ENGL 219", grade:"B-"},{name:"NE 230", grade:"C+"},{name:"NE 317", grade:"B+"},{name:"MATH 162", grade:"B"},{name:"CHEM 123L", grade:"C+"},{name:"PHYC 161", grade:"C-"},{name:"CE 202", grade:"CR"},{name:"SB C ", grade:"B+"},{name:"SB C ", grade:"D-"},{name:"PHYC 161", grade:"C-"},{name:"NE 311", grade:"CR"},{name:"NE 452", grade:"A"},{name:"NE 230", grade:"B-"},{name:"NE 310", grade:"C+"},{name:"NE 470", grade:"B-"},{name:"Technical Elective ", grade:"C+"},{name:"NE 497L", grade:"C-"},{name:"NE 101", grade:"C-"},{name:"NE 230", grade:"A"},{name:"SB C ", grade:"B"},{name:"SB C ", grade:"B-"},{name:"MATH 264", grade:"B+"},{name:"CHEM 123L", grade:"B-"},{name:"CE 202", grade:"B"},{name:"Humanities Core ", grade:"C-"},{name:"NE 372", grade:"B"},{name:"NE 497L", grade:"A"},{name:"MATH 162", grade:"B"},{name:"SB C ", grade:"A-"},{name:"ENGL 219", grade:"A-"},{name:"NE 230", grade:"C"},{name:"MATH 162", grade:"C"},{name:"ENGL 120", grade:"C-"},{name:"NE 323L", grade:"D-"},{name:"CHEM 123L", grade:"CR"},{name:"MATH 163", grade:"A-"},{name:"PHYC 161", grade:"C"},{name:"NE 470", grade:"C-"},{name:"Technical Elective ", grade:"C"},{name:"Second Language Core ", grade:"B-"}],track:"False",ptrack:0.438272266716}
{id:"65", semesters_attended: 1,courses_taken: [{name:"PHYC 161L", grade:"B"},{name:"Social Science ", grade:"C-"},{name:"ECE 206L", grade:"C-"},{name:"PHYC 161L", grade:"B+"},{name:"ECE 238L", grade:"C-"},{name:"PHYC 262", grade:"CR"},{name:"MATH 264", grade:"CR"},{name:"EE C C ", grade:"B-"},{name:"EE C C ", grade:"CR"},{name:"Humanities ", grade:"D-"},{name:"ENGL 219", grade:"C+"},{name:"EE C C ", grade:"A"},{name:"Fine Arts ", grade:"B-"}],track:"True",ptrack:0.600945878748}
{id:"66", semesters_attended: 4,courses_taken: [{name:"EE T E ", grade:"A"},{name:"PHYC 161", grade:"B"},{name:"Second Language ", grade:"A"},{name:"ECE 314", grade:"C-"},{name:"ECE 420", grade:"A"},{name:"EE T E ", grade:"C"},{name:"MATH 264", grade:"B+"}],track:"True",ptrack:0.71774253349}
{id:"67", semesters_attended: 7,courses_taken: [{name:"MATH 264", grade:"C"},{name:"ECE 206L", grade:"A-"},{name:"ECE 420", grade:"CR"},{name:"MATH 162", grade:"CR"},{name:"MATH 162", grade:"B-"},{name:"MATH 316", grade:"B"}],track:"False",ptrack:0.0140248699123}
{id:"68", semesters_attended: 5,courses_taken: [{name:"Upper Division Area of Focus 2 ", grade:"D-"},{name:"MATH 121 OR MATH 129 OR STAT 145 ", grade:"A-"},{name:"Upper Division Area of Focus 2 ", grade:"A-"},{name:"Humanities ", grade:"D-"},{name:"Upper Division Area of Focus 1 ", grade:"C"},{name:"Humanities ", grade:"C"},{name:"ENGL 120", grade:"D-"},{name:"Upper Division Area of Focus 1 ", grade:"C-"},{name:"LAIS 311", grade:"C"},{name:"Upper Division Area of Focus 1 ", grade:"B+"},{name:"Fine Arts ", grade:"B"},{name:"Upper Division Area of Focus 2 ", grade:"C"},{name:"Physical and Natural Science ", grade:"A-"},{name:"Freshman Academic Choice ", grade:"C"},{name:"Upper Division Area of Focus 2 ", grade:"A"},{name:"Second Language ", grade:"B-"},{name:"Upper Division Area of Focus 2 ", grade:"B-"},{name:"LAIS 399", grade:"D-"},{name:"LAIS 399", grade:"C+"},{name:"Upper Division Area of Focus 1 ", grade:"C"},{name:"Second Language ", grade:"A-"},{name:"LAIS 399", grade:"A"},{name:"LAIS 310", grade:"C+"},{name:"Upper Division Area of Focus 1 ", grade:"B+"}],track:"False",ptrack:0.335356833808}
{id:"69", semesters_attended: 5,courses_taken: [{name:"CS 150L", grade:"A-"},{name:"Free Electives ", grade:"C-"},{name:"MATH 121", grade:"C-"},{name:"MGMT 426", grade:"B"},{name:"MGMT 308", grade:"C"},{name:"CS 150L", grade:"B"},{name:"Financial Management Elective ", grade:"B-"},{name:"Social & Behavioral Sciences Elective ", grade:"C"},{name:"ENGL 219 OR ENGL 220 ", grade:"A"},{name:"Fine Arts Requirement ", grade:"B+"},{name:"Phsyical & Natural Sciences ", grade:"B-"},{name:"PSY 105 OR SOC 101 ", grade:"A"},{name:"MGMT 202", grade:"C"},{name:"Physical and Natural Science with Lab ", grade:"B"}],track:"False",ptrack:0.078355440983}
{id:"70", semesters_attended: 6,courses_taken: [{name:"CE 371", grade:"D-"},{name:"CE 171", grade:"C"},{name:"SB S C ", grade:"D-"},{name:"Fine Arts Core ", grade:"C"},{name:"MGMT 300", grade:"A-"},{name:"EPS 101", grade:"C"},{name:"Humanities Core ", grade:"CR"},{name:"CE 455", grade:"A-"},{name:"CS 150L", grade:"B+"},{name:"ENGL 110", grade:"B"},{name:"MATH 123", grade:"B-"},{name:"MATH 180", grade:"C+"},{name:"CE 478", grade:"B"},{name:"Fine Arts Core ", grade:"C+"},{name:"CJ 130", grade:"C"},{name:"Management Elective ", grade:"D-"},{name:"Humanities Core ", grade:"C+"},{name:"CE 455", grade:"C+"},{name:"CE 455", grade:"CR"},{name:"CE 130", grade:"C+"},{name:"CE 497L", grade:"B+"}],track:"True",ptrack:0.970842668987}
{id:"71", semesters_attended: 1,courses_taken: [{name:"ECON 307", grade:"B+"},{name:"Humanities ", grade:"B+"},{name:"Minor or 2nd Major Requirement ", grade:"CR"},{name:"ECON 307", grade:"B"},{name:"MATH 162", grade:"B+"},{name:"Econ Elective 1 (200-level) ", grade:"C+"},{name:"ECON E 6 300 ", grade:"C"},{name:"Physical and Natural Science ", grade:"C-"},{name:"STAT 145", grade:"CR"},{name:"ECON 309", grade:"C-"},{name:"ECON 309", grade:"A-"},{name:"ENGL 110", grade:"C"},{name:"MATH 162", grade:"C-"},{name:"ECON 300", grade:"B"},{name:"Upper Division Elective ", grade:"A-"},{name:"ECON 307", grade:"D-"},{name:"Econ Elective 1 (200-level) ", grade:"A"},{name:"UD E ", grade:"C+"},{name:"Physical and Natural Science ", grade:"C-"},{name:"ECON 309", grade:"B-"},{name:"Econ Elective 1 (200-level) ", grade:"CR"},{name:"Econ Elective 1 (200-level) ", grade:"A-"},{name:"MATH 121  MATH 123  MATH 150  MATH 162  MATH 180 ", grade:"B-"},{name:"ECON E 2 300 ", grade:"CR"},{name:"Physical and Natural Science ", grade:"C+"},{name:"2nd Major or Elective any level ", grade:"B-"},{name:"Minor or 2nd Major Requirement ", grade:"B"},{name:"ECON E 2 300 ", grade:"C-"},{name:"Minor or 2nd Major Requirement ", grade:"CR"},{name:"Physical and Natural Science ", grade:"B-"},{name:"Minor or 2nd Major Requirement ", grade:"CR"}],track:"False",ptrack:0.387283603946}
{id:"72", semesters_attended: 4,courses_taken: [{name:"CHEM 122", grade:"B-"},{name:"NE 213", grade:"B-"},{name:"NE 498L", grade:"CR"},{name:"NE 310", grade:"B-"},{name:"NE 470", grade:"C"},{name:"NE 323L", grade:"A-"},{name:"NE 311", grade:"A"},{name:"MATH 162", grade:"A-"},{name:"CS 151L", grade:"C+"},{name:"ECON 105", grade:"C"},{name:"NE 330", grade:"CR"},{name:"MATH 163", grade:"A"},{name:"CS 151L", grade:"CR"},{name:"PHYC 262", grade:"A-"},{name:"NE 498L", grade:"C+"},{name:"NE 311", grade:"B+"}],track:"True",ptrack:0.92754708635}
{id:"73", semesters_attended: 3,courses_taken: [{name:"Core Social/Behavioral Science ", grade:"C+"},{name:"BIOL 110", grade:"B"},{name:"MATH 316", grade:"B+"}],track:"True",ptrack:0.589410390194}
{id:"74", semesters_attended: 6,courses_taken: [{name:"Upper Division Area of Focus 1 ", grade:"C+"},{name:"Second Language ", grade:"B+"},{name:"Upper Division Area of Focus 1 ", grade:"CR"},{name:"Upper Division Area of Focus 2 ", grade:"B"},{name:"Upper Division Area of Focus 1 ", grade:"CR"},{name:"Lower Division Elective/Pre-requisite ", grade:"A"},{name:"Social Behavioral Science ", grade:"B+"},{name:"Upper Division Area of Focus 1 ", grade:"B-"},{name:"Physical and Natural Science ", grade:"A"}],track:"True",ptrack:0.513144235141}
{id:"75", semesters_attended: 7,courses_taken: [{name:"CE 409", grade:"C"},{name:"MATH 123", grade:"A"},{name:"MGMT 303", grade:"B-"},{name:"CE 371", grade:"C+"},{name:"CHEM 123L", grade:"B"},{name:"CE 477", grade:"C"},{name:"CE 376", grade:"A"},{name:"MATH 180", grade:"A-"},{name:"Humanities Core ", grade:"B+"},{name:"MGMT 310", grade:"A-"},{name:"CE 409", grade:"C"},{name:"CE 279", grade:"C+"},{name:"ENGL 219", grade:"CR"},{name:"MGMT 310", grade:"C+"},{name:"CE 171", grade:"B+"},{name:"Construction Elective ", grade:"B"},{name:"CE 495", grade:"B"},{name:"Management Elective ", grade:"D-"},{name:"MATH 123", grade:"C-"},{name:"ENGL 219", grade:"B-"},{name:"EPS 101", grade:"C+"},{name:"CE 477", grade:"C+"},{name:"Construction Elective ", grade:"D-"},{name:"CS 150L", grade:"CR"},{name:"CE 370", grade:"C-"},{name:"Management Elective ", grade:"B-"},{name:"Fine Arts Core ", grade:"B+"},{name:"CE 171", grade:"B+"},{name:"ENGL 110", grade:"CR"},{name:"CS 150L", grade:"B-"},{name:"CE 130", grade:"B"},{name:"Humanities Core ", grade:"C"},{name:"Humanities Core ", grade:"C"}],track:"True",ptrack:0.88852969241}
{id:"76", semesters_attended: 6,courses_taken: [{name:"LAIS 399", grade:"D-"},{name:"Lower Division Elective/Pre-requisite ", grade:"C"},{name:"Upper Division Area of Focus 1 ", grade:"B"},{name:"LAIS 399", grade:"CR"},{name:"Physical and Natural Science ", grade:"C-"},{name:"Upper Division Area of Focus 1 ", grade:"C-"}],track:"True",ptrack:0.70800378206}
{id:"77", semesters_attended: 1,courses_taken: [{name:"ECE 314", grade:"D-"},{name:"ECE 440", grade:"CR"},{name:"Technical Elective ", grade:"D-"},{name:"ECON 105", grade:"B-"},{name:"ECE 238L", grade:"C-"},{name:"Humanities ", grade:"B+"},{name:"PHYC 161", grade:"C+"},{name:"ENGL 110", grade:"B+"},{name:"MATH 264", grade:"C+"},{name:"Humanities ", grade:"B"}],track:"False",ptrack:0.00461211576081}
{id:"78", semesters_attended: 6,courses_taken: [{name:"MGMT 443", grade:"A-"},{name:"MGMT 310", grade:"D-"},{name:"MGMT 306", grade:"A-"},{name:"ENGL 120", grade:"B-"},{name:"ENGL 120", grade:"B"},{name:"MATH 180", grade:"B"},{name:"ENGL 110", grade:"B"},{name:"ENGL 120", grade:"D-"},{name:"Fine Arts Requirement ", grade:"C+"},{name:"Computer Science 150 ", grade:"C-"},{name:"MGMT 346", grade:"C+"},{name:"MGMT 326", grade:"CR"},{name:"Free Electives ", grade:"B-"},{name:"MGMT 449", grade:"C-"},{name:"Computer Science 150 ", grade:"D-"},{name:"MGMT 450", grade:"B+"},{name:"Upper Division Humanities ", grade:"B+"},{name:"MGMT 310", grade:"CR"},{name:"ECON 106", grade:"D-"},{name:"MGMT 450", grade:"A-"},{name:"MGMT 498", grade:"A-"},{name:"MGMT 300", grade:"C-"},{name:"MGMT 300", grade:"C+"},{name:"MGMT 308", grade:"C-"}],track:"False",ptrack:0.437543493151}
{id:"79", semesters_attended: 6,courses_taken: [{name:"ENGL 219", grade:"A"},{name:"Technical Elective ", grade:"C"},{name:"CHBE 253", grade:"C"},{name:"CHBE 319L", grade:"A"},{name:"Advanced Chemistry Concentration ", grade:"A"},{name:"CHBE 101", grade:"B-"},{name:"PHYC 160", grade:"B-"},{name:"Advanced Chemistry Concentration ", grade:"A"},{name:"CHEM 303L", grade:"B+"},{name:"PHYC 160", grade:"B-"}],track:"True",ptrack:0.965868931002}
{id:"80", semesters_attended: 3,courses_taken: [{name:"PSY 105 OR SOC 101 ", grade:"B+"},{name:"Free Electives ", grade:"B-"},{name:"MATH 180", grade:"C+"},{name:"MGMT 450", grade:"B"},{name:"Phsyical & Natural Sciences ", grade:"C"},{name:"Free electives ", grade:"C"},{name:"Free electives ", grade:"A-"},{name:"MGMT 471", grade:"C"},{name:"Humanities Requirement ", grade:"B-"},{name:"MGMT 471", grade:"A-"},{name:"Financial Management Elective ", grade:"A"},{name:"MGMT 322", grade:"B"},{name:"Financial Management Elective ", grade:"CR"},{name:"ECON 105", grade:"CR"},{name:"MATH 121", grade:"C-"},{name:"ENGL 219 OR ENGL 220 ", grade:"B"},{name:"MGMT 322", grade:"D-"},{name:"MGMT 300", grade:"C-"},{name:"MGMT 398", grade:"A"},{name:"Social & Behavioral Science Elective ", grade:"C"},{name:"CS 150L", grade:"CR"},{name:"MGMT 300", grade:"A-"},{name:"MGMT 450", grade:"B-"},{name:"Upper Division Humanities ", grade:"A-"},{name:"MGMT 426", grade:"B+"},{name:"MGMT 306", grade:"A-"},{name:"Phsyical & Natural Sciences ", grade:"C-"},{name:"Social & Behavioral Science Elective ", grade:"B+"},{name:"ENGL 120", grade:"B-"},{name:"MGMT 322", grade:"A"}],track:"False",ptrack:0.309445420829}
{id:"81", semesters_attended: 6,courses_taken: [{name:"CE 171", grade:"CR"},{name:"CE 376", grade:"D-"},{name:"Second Language Core ", grade:"C"},{name:"MGMT 202", grade:"B+"},{name:"ECON 105", grade:"CR"},{name:"Construction Elective ", grade:"A"},{name:"MATH 123", grade:"A-"},{name:"Humanities Core ", grade:"A"},{name:"CJ 130", grade:"B-"},{name:"Humanities Core ", grade:"D-"},{name:"MGMT 300", grade:"A"},{name:"SB S C ", grade:"D-"},{name:"CE 171", grade:"B+"},{name:"CE 283", grade:"D-"},{name:"CE 455", grade:"C"},{name:"Humanities Core ", grade:"A"},{name:"CE 495", grade:"B+"},{name:"ENGL 120", grade:"B-"},{name:"EPS 101", grade:"A"},{name:"Humanities Core ", grade:"A-"},{name:"CE 160L", grade:"B+"},{name:"Construction Elective ", grade:"C+"},{name:"MGMT 202", grade:"C-"},{name:"CE 473", grade:"B-"},{name:"CE 495", grade:"C-"},{name:"CE 455", grade:"C"},{name:"ECON 105", grade:"C-"},{name:"EPS 101", grade:"B+"},{name:"CE 279", grade:"A-"},{name:"Humanities Core ", grade:"C"},{name:"CE 130", grade:"B+"},{name:"MATH 180", grade:"C"},{name:"CE 160L", grade:"D-"},{name:"CE 477", grade:"C-"},{name:"CE 350", grade:"D-"},{name:"Management Elective ", grade:"C+"},{name:"CE 477", grade:"B+"},{name:"CE 376", grade:"C-"},{name:"STAT 145", grade:"C"},{name:"MATH 121", grade:"A"},{name:"ENGL 219", grade:"B-"},{name:"CE 409", grade:"A"},{name:"MGMT 202", grade:"C-"},{name:"CE 376", grade:"C+"},{name:"CE 497L", grade:"B+"}],track:"True",ptrack:0.964662657284}
{id:"82", semesters_attended: 2,courses_taken: [{name:"ME ES E  ME 407", grade:"C-"},{name:"Humanities Core Course ", grade:"B-"},{name:"ME 380", grade:"C-"},{name:"PHYC 160", grade:"D-"},{name:"ME 370", grade:"CR"},{name:"ME 160L", grade:"B-"},{name:"ENGL 110", grade:"A"},{name:"PHYC 161", grade:"A-"},{name:"ECON 105", grade:"C"},{name:"ME 460", grade:"C"},{name:"ENGL 120", grade:"A"},{name:"ME 357", grade:"A-"},{name:"MATH 264", grade:"D-"},{name:"ME 357", grade:"B-"},{name:"ME ES E  ME 407", grade:"B-"},{name:"MATH 264", grade:"A"},{name:"MATH 264", grade:"B+"},{name:"ECON 105", grade:"A"},{name:"ME 260L", grade:"C-"},{name:"PHYC 160", grade:"A"},{name:"ME 217", grade:"B+"},{name:"ME ES E ", grade:"A"},{name:"MATH 264", grade:"B"},{name:"ME 380", grade:"C+"},{name:"ECON 105", grade:"C+"},{name:"ME 370", grade:"CR"},{name:"MATH 316", grade:"B+"},{name:"Fine Arts Core Course ", grade:"A"},{name:"ME 352L", grade:"C"},{name:"Humanities Core Course ", grade:"B-"},{name:"ME 360L", grade:"B"},{name:"ENGL 120", grade:"C+"},{name:"ME 352L", grade:"B"},{name:"ECE 203", grade:"CR"},{name:"CS 151L", grade:"C-"},{name:"Technical Elective ", grade:"A"},{name:"MATH 316", grade:"A"}],track:"True",ptrack:0.623289300267}
{id:"83", semesters_attended: 4,courses_taken: [{name:"Advanced Chemistry Concentration ", grade:"A"},{name:"CHBE 321", grade:"B-"},{name:"CHBE 361", grade:"A-"},{name:"Technical Elective ", grade:"C-"},{name:"CHBE 493L", grade:"D-"},{name:"CHBE 251", grade:"C+"},{name:"CHBE 318L", grade:"C"},{name:"Second Language Core ", grade:"B-"},{name:"CHEM 124L", grade:"B"},{name:"CHEM 123L", grade:"B-"},{name:"MATH 163", grade:"C"},{name:"PHYC 160", grade:"B"},{name:"MATH 264", grade:"CR"},{name:"CHEM 124L", grade:"C"},{name:"Basic Science Concentration ", grade:"B"},{name:"PHYC 160", grade:"CR"},{name:"CHBE 251", grade:"A"},{name:"MATH 264", grade:"CR"}],track:"True",ptrack:0.94186295872}
{id:"84", semesters_attended: 5,courses_taken: [{name:"MGMT 343", grade:"C-"},{name:"MGMT 310", grade:"C"},{name:"ECON 105", grade:"CR"},{name:"MGMT 322", grade:"D-"},{name:"ENGL 110", grade:"C+"},{name:"ENGL 120", grade:"C"},{name:"Free Electives ", grade:"CR"},{name:"Physical and Natural Science with Lab ", grade:"C"}],track:"True",ptrack:0.930098214813}
{id:"85", semesters_attended: 7,courses_taken: [{name:"MGMT 326", grade:"D-"},{name:"MGMT 443", grade:"B+"},{name:"MGMT 300", grade:"B"},{name:"MGMT 449", grade:"D-"},{name:"ENGL 110", grade:"C+"},{name:"Fine Arts Requirement ", grade:"B"},{name:"MGMT 443", grade:"CR"},{name:"MATH 180", grade:"B-"},{name:"MGMT 328", grade:"CR"},{name:"MGMT 346", grade:"C"},{name:"Fine Arts Requirement ", grade:"C-"},{name:"Social & Behavioral Science Elective ", grade:"B+"},{name:"MATH 180", grade:"C"},{name:"MGMT 450", grade:"D-"},{name:"Social & Behavioral Science Elective ", grade:"C-"},{name:"MGMT 346", grade:"B-"},{name:"Computer Science 150 ", grade:"D-"},{name:"Humanities ", grade:"B+"},{name:"MGMT 449", grade:"A"},{name:"Social & Behavioral Science Elective ", grade:"A"}],track:"True",ptrack:0.776170672012}
{id:"86", semesters_attended: 1,courses_taken: [{name:"ENGL 110 ", grade:"C"},{name:"MGMT 310", grade:"C-"},{name:"PSY 105 OR SOC 101 ", grade:"C"},{name:"MGMT 471", grade:"A-"},{name:"MGMT 202", grade:"A-"},{name:"MGMT 398", grade:"B-"},{name:"MGMT 322", grade:"A-"},{name:"MGMT 398", grade:"A-"},{name:"ENGL 120", grade:"C+"},{name:"Free electives ", grade:"C+"},{name:"MGMT 308", grade:"B-"},{name:"STAT 145 OR STAT 245 OR STAT 345 ", grade:"B+"}],track:"True",ptrack:0.722469975962}
{id:"87", semesters_attended: 6,courses_taken: [{name:"CHEM 124L", grade:"A-"},{name:"MATH 162", grade:"D-"},{name:"CHBE 419L", grade:"B-"},{name:"CHBE 461", grade:"D-"},{name:"ENGL 120", grade:"B-"},{name:"CHBE 419L", grade:"D-"},{name:"PHYC 161", grade:"D-"},{name:"Fine Arts ", grade:"C+"},{name:"CHBE 493L", grade:"A-"},{name:"CHBE 251", grade:"CR"},{name:"Social Science ", grade:"C+"},{name:"CHEM 124L", grade:"B"},{name:"Technical Elective ", grade:"CR"},{name:"Humanities ", grade:"C"},{name:"CHBE 493L", grade:"B"},{name:"MATH 162", grade:"B+"},{name:"CHBE 319L", grade:"B-"},{name:"MATH 264", grade:"B-"},{name:"CHBE 321", grade:"B+"},{name:"CHBE 451", grade:"CR"},{name:"CHBE 312", grade:"CR"},{name:"CHBE 317", grade:"B+"},{name:"Second Language Core ", grade:"A-"},{name:"Humanities ", grade:"B+"}],track:"True",ptrack:0.798473423763}
{id:"88", semesters_attended: 4,courses_taken: [{name:"CE 495", grade:"A-"},{name:"CHEM 121", grade:"D-"},{name:"PHYC 161", grade:"C-"},{name:"CE 308", grade:"C-"},{name:"CE 310", grade:"B-"},{name:"ME 306", grade:"B-"},{name:"CE 283", grade:"C"},{name:"CE 370", grade:"C+"},{name:"CE 455", grade:"A"},{name:"CE 475", grade:"A-"},{name:"CE 305", grade:"C"},{name:"CE 331", grade:"D-"}],track:"False",ptrack:0.293436162829}
{id:"89", semesters_attended: 5,courses_taken: [{name:"MGMT 450", grade:"A-"},{name:"Social & Behavioral Science Elective ", grade:"C"},{name:"MGMT 498", grade:"C"},{name:"Fine Arts Requirement ", grade:"A-"},{name:"Computer Science 150 ", grade:"CR"},{name:"Social & Behavioral Science Elective ", grade:"C"},{name:"MGMT 340", grade:"A-"},{name:"ECON 106", grade:"B"},{name:"MGMT 322", grade:"B+"},{name:"Foreign Language ", grade:"A-"},{name:"Fine Arts Requirement ", grade:"C+"},{name:"MGMT 300", grade:"C"},{name:"Fine Arts Requirement ", grade:"B-"},{name:"MGMT 326", grade:"CR"},{name:"Free Elective ", grade:"A"},{name:"MGMT 328", grade:"C"},{name:"Free Elective ", grade:"A"},{name:"MGMT 310", grade:"D-"},{name:"Computer Science 150 ", grade:"A"},{name:"ENGL 120", grade:"C"}],track:"False",ptrack:0.074711172763}
{id:"90", semesters_attended: 7,courses_taken: [{name:"ECE 131", grade:"CR"},{name:"ECE 101", grade:"CR"},{name:"MATH 327", grade:"C+"},{name:"ECE 231", grade:"C+"},{name:"Math Elective ", grade:"B+"},{name:"ECE 419", grade:"A"},{name:"ECE 238L", grade:"C-"},{name:"ECE 238L", grade:"CR"},{name:"ECE 101", grade:"A-"},{name:"ECE 131", grade:"D-"},{name:"ECE 213", grade:"B-"},{name:"Fine Arts ", grade:"A"},{name:"Social Science ", grade:"A"},{name:"PHYC 160", grade:"D-"},{name:"ECE 420", grade:"B+"},{name:"Technical Elective ", grade:"D-"},{name:"ECE 213", grade:"A-"},{name:"ECE 337", grade:"C-"}],track:"True",ptrack:0.975071708648}
{id:"91", semesters_attended: 2,courses_taken: [{name:"ECE 203", grade:"B+"},{name:"ECE 321", grade:"A-"},{name:"MATH 314", grade:"B-"},{name:"EE C C ", grade:"C+"},{name:"MATH 163", grade:"D-"},{name:"Technical Elective ", grade:"D-"},{name:"PHYC 161", grade:"B"},{name:"ECE 420", grade:"A"},{name:"MATH 264", grade:"A"},{name:"ECE 314", grade:"B"},{name:"Social Science ", grade:"A"},{name:"CHEM 121", grade:"CR"},{name:"ECE 206L", grade:"A"},{name:"Humanities ", grade:"CR"},{name:"MATH 314", grade:"A"},{name:"Social Science ", grade:"C+"},{name:"ECE 419", grade:"A-"},{name:"ECE 238L", grade:"D-"},{name:"EE C C ", grade:"A-"},{name:"CHEM 121", grade:"B+"},{name:"PHYC 262", grade:"CR"},{name:"MATH 264", grade:"C-"},{name:"Humanities ", grade:"CR"},{name:"ECE 419", grade:"A"},{name:"ECE 213", grade:"C-"},{name:"ENGL 219", grade:"C+"},{name:"EE T E ", grade:"A"},{name:"ECE 344L", grade:"C-"},{name:"ECE 314", grade:"C+"},{name:"ECE 340", grade:"A"},{name:"CHEM 121", grade:"CR"},{name:"ECE 344L", grade:"D-"},{name:"ECE 131", grade:"B"},{name:"ECE 213", grade:"A"}],track:"True",ptrack:0.756784984981}
{id:"92", semesters_attended: 3,courses_taken: [{name:"ENGL 120", grade:"A-"},{name:"Writing and Speaking ", grade:"C+"},{name:"CS 152L", grade:"B+"},{name:"CS 241L", grade:"C"},{name:"Writing and Speaking ", grade:"CR"},{name:"CS 375", grade:"CR"}],track:"False",ptrack:0.416883215641}
{id:"93", semesters_attended: 4,courses_taken: [{name:"Technical Elective ", grade:"C-"},{name:"NE 312", grade:"B-"},{name:"MATH 162", grade:"C-"},{name:"PHYC 262", grade:"C-"},{name:"NE 323L", grade:"A-"},{name:"NE 313L", grade:"B+"},{name:"NE 464", grade:"A-"},{name:"SB C ", grade:"C"},{name:"MATH 163", grade:"B-"},{name:"CHEM 121", grade:"CR"},{name:"Technical Elective ", grade:"CR"},{name:"PHYC 161", grade:"A-"},{name:"ENGL 219", grade:"B"},{name:"NE 317", grade:"D-"},{name:"PHYC 262", grade:"B+"},{name:"NE 314", grade:"B"},{name:"NE 497L", grade:"CR"},{name:"MATH 264", grade:"C-"},{name:"NE 311", grade:"B+"},{name:"NE 498L", grade:"CR"}],track:"False",ptrack:0.0328534657531}
{id:"94", semesters_attended: 6,courses_taken: [{name:"MATH 163", grade:"CR"},{name:"CE 302", grade:"B+"},{name:"Humanities Core ", grade:"B+"},{name:"ENGL 120", grade:"C-"},{name:"CE 308", grade:"A-"},{name:"CHEM 121", grade:"C+"},{name:"Core Social/Behavioral Science ", grade:"B+"},{name:"ECE 203", grade:"A"},{name:"CS 151L", grade:"B+"},{name:"ME 306", grade:"B-"},{name:"ENGL 120", grade:"C+"},{name:"Humanities Core ", grade:"C"},{name:"Fine Arts Core ", grade:"C"},{name:"ME 306", grade:"A-"},{name:"CE 372", grade:"CR"},{name:"CE 331", grade:"B+"}],track:"True",ptrack:0.775786951912}
{id:"95", semesters_attended: 5,courses_taken: [{name:"PHYC 160", grade:"A-"}],track:"True",ptrack:0.508709790707}
{id:"96", semesters_attended: 1,courses_taken: [{name:"MGMT 449", grade:"B+"},{name:"PSY 105", grade:"CR"},{name:"Upper Division Humanities ", grade:"A"},{name:"ENGL 110", grade:"C+"},{name:"MGMT 308", grade:"A-"},{name:"MGMT 341", grade:"C"},{name:"Physical and Natural Science with Lab ", grade:"C"},{name:"Free Elective ", grade:"CR"},{name:"MGMT 443", grade:"A"},{name:"MATH 180", grade:"C+"},{name:"Physical and Natural Science with Lab ", grade:"C"},{name:"Foreign Language ", grade:"A-"},{name:"MGMT 310", grade:"C"}],track:"False",ptrack:0.295595739451}
{id:"97", semesters_attended: 7,courses_taken: [{name:"CE 377", grade:"C+"},{name:"CE 475", grade:"D-"},{name:"Management Elective ", grade:"A"},{name:"CE 171", grade:"B+"},{name:"CE 477", grade:"C"},{name:"CS 150L", grade:"CR"},{name:"CJ 130", grade:"CR"},{name:"CE 130", grade:"B+"},{name:"CE 495", grade:"C"},{name:"CJ 130", grade:"C+"},{name:"EPS 101", grade:"B"},{name:"CE 376", grade:"CR"},{name:"CE 473", grade:"CR"},{name:"CE 370", grade:"C-"},{name:"ENGL 219", grade:"B"},{name:"CE 160L", grade:"C-"},{name:"Humanities Core ", grade:"C"},{name:"CE 130", grade:"B"},{name:"Fine Arts Core ", grade:"B"},{name:"MGMT 310", grade:"C+"},{name:"STAT 145", grade:"B+"},{name:"MGMT 202", grade:"A"},{name:"MATH 121", grade:"CR"},{name:"CE 283", grade:"A-"},{name:"CJ 130", grade:"C-"},{name:"CJ 130", grade:"D-"},{name:"Construction Elective ", grade:"C+"},{name:"CE 171", grade:"B+"},{name:"CE 477", grade:"C+"},{name:"CE 279", grade:"D-"},{name:"CE 160L", grade:"A"},{name:"CE 370", grade:"C"},{name:"CE 477", grade:"C"},{name:"MGMT 303", grade:"A"},{name:"CE 370", grade:"C+"},{name:"Humanities Core ", grade:"C"},{name:"CE 371", grade:"C"},{name:"Management Elective ", grade:"CR"},{name:"CE 475", grade:"A"},{name:"CHEM 123L", grade:"B+"},{name:"CE 305", grade:"B-"},{name:"MATH 180", grade:"B-"},{name:"CE 478", grade:"D-"}],track:"True",ptrack:0.681451191907}
{id:"98", semesters_attended: 2,courses_taken: [{name:"MGMT 310", grade:"C-"},{name:"CE 495", grade:"C+"},{name:"CHEM 123L", grade:"A"},{name:"EPS 101", grade:"B+"},{name:"PHYC 151", grade:"C"},{name:"Construction Elective ", grade:"A-"},{name:"MGMT 202", grade:"C-"},{name:"Humanities Core ", grade:"B+"},{name:"CE 477", grade:"C+"},{name:"CE 473", grade:"C"},{name:"CS 150L", grade:"A-"},{name:"CE 283", grade:"C-"},{name:"MATH 180", grade:"A-"},{name:"Construction Elective ", grade:"CR"},{name:"CE 478", grade:"A"},{name:"Management Elective ", grade:"B"},{name:"CE 160L", grade:"D-"},{name:"CE 370", grade:"B-"},{name:"CE 376", grade:"C+"},{name:"ECON 105", grade:"A-"},{name:"CS 150L", grade:"C-"},{name:"CE 350", grade:"C"},{name:"CE 478", grade:"A-"},{name:"CE 376", grade:"D-"},{name:"CE 279", grade:"B+"},{name:"ECON 105", grade:"C"},{name:"MATH 180", grade:"A"},{name:"MGMT 300", grade:"B"},{name:"Humanities Core ", grade:"C"},{name:"CE 130", grade:"B+"},{name:"CE 409", grade:"A-"},{name:"CE 409", grade:"B+"},{name:"MGMT 300", grade:"A"},{name:"SB S C ", grade:"B-"},{name:"ENGL 110", grade:"C"},{name:"CE 478", grade:"B+"},{name:"CE 377", grade:"A-"},{name:"Humanities Core ", grade:"B-"}],track:"True",ptrack:0.575861590837}
{id:"99", semesters_attended: 5,courses_taken: [{name:"MGMT 426", grade:"CR"},{name:"Phsyical & Natural Sciences ", grade:"A"},{name:"MGMT 306", grade:"D-"},{name:"ECON 106", grade:"B-"},{name:"MGMT 498", grade:"B"},{name:"Social & Behavioral Sciences Elective ", grade:"C"},{name:"MATH 121", grade:"B+"},{name:"ENGL 110 ", grade:"CR"},{name:"Financial Management Elective ", grade:"B-"},{name:"MGMT 300", grade:"CR"},{name:"Free electives ", grade:"A-"},{name:"MGMT 300", grade:"C"},{name:"MGMT 202", grade:"B-"},{name:"PSY 105 OR SOC 101 ", grade:"A"},{name:"MGMT 322", grade:"B"},{name:"MGMT 300", grade:"A"},{name:"MGMT 322", grade:"C"}],track:"False",ptrack:0.297171141763}
